[
    {
        "Attchments": [],
        "Forms": [],
        "MainForm": {
            "DataFormatID": "5506",
            "DataFormatVersion": 41798,
            "FormName": "Distribusjonstjeneste for erkl\u00e6ring av ansvarsrett",
            "FormType": "MainForm",
            "Schema": "https://altinn.no/api/metadata/formtask/4762/1/forms/5506/41798/xsd"
        },
        "ServiceCode": "4762",
        "ServiceEditionCode": 1,
        "ServiceName": "Distribusjonstjeneste for erkl\u00e6ring av ansvarsrett",
        "Url": "https://altinn.no/api/metadata/formtask/4762/1",
        "ValidFrom": "2020-02-06T20:17:15.763",
        "ValidTo": "2020-02-06T20:18:36.123"
    },
    {
        "Attchments": [],
        "Forms": [],
        "MainForm": {
            "DataFormatID": "5908",
            "DataFormatVersion": 43469,
            "FormName": "Distribusjonstjeneste for kontroll og samsvarserkl\u00e6ring",
            "FormType": "MainForm",
            "Schema": "https://altinn.no/api/metadata/formtask/5194/1/forms/5908/43469/xsd"
        },
        "ServiceCode": "5194",
        "ServiceEditionCode": 1,
        "ServiceName": "Distribusjonstjeneste for kontroll og samsvarserkl\u00e6ring",
        "Url": "https://altinn.no/api/metadata/formtask/5194/1",
        "ValidFrom": "2019-12-05T11:00:00",
        "ValidTo": "2048-09-11T10:53:00"
    },
    {
        "Attchments": [],
        "Forms": [],
        "MainForm": {
            "DataFormatID": "5699",
            "DataFormatVersion": 42465,
            "FormName": "Erkl\u00e6ring om ansvarsrett",
            "FormType": "MainForm",
            "Schema": "https://altinn.no/api/metadata/formtask/4419/3/forms/5699/42465/xsd"
        },
        "ServiceCode": "4419",
        "ServiceEditionCode": 3,
        "ServiceName": "Erkl\u00e6ring om Ansvarsrett",
        "Url": "https://altinn.no/api/metadata/formtask/4419/3",
        "ValidFrom": "2020-02-07T10:50:46.787",
        "ValidTo": "2047-10-24T14:36:00"
    },
    {
        "Attchments": [],
        "Forms": [],
        "MainForm": {
            "DataFormatID": "5700",
            "DataFormatVersion": 42467,
            "FormName": "Erkl\u00e6ring om ansvarsrett",
            "FormType": "MainForm",
            "Schema": "https://altinn.no/api/metadata/formtask/4965/2/forms/5700/42467/xsd"
        },
        "ServiceCode": "4965",
        "ServiceEditionCode": 2,
        "ServiceName": "Erkl\u00e6ring om ansvarsrett - direkte skjemaoppretting",
        "Url": "https://altinn.no/api/metadata/formtask/4965/2",
        "ValidFrom": "2019-12-05T10:00:00",
        "ValidTo": "2047-10-25T11:22:00"
    },
    {
        "Attchments": [
            {
                "AllowedFileTypes": "pdf, doc, jpeg, jpg, xls, tif, tiff, ppt, png, jpeg, docx, sos, txt, xlsx, xml",
                "AttachmentTypeName": "ErklaeringAnsvarsrett",
                "MaxAttachmentCount": 99,
                "MaxFileSize": 200,
                "MinAttachmentCount": 0
            },
            {
                "AllowedFileTypes": "pdf, jpeg, jpg, tif, tiff, png",
                "AttachmentTypeName": "Annet",
                "MaxAttachmentCount": 99,
                "MaxFileSize": 30,
                "MinAttachmentCount": 0
            }
        ],
        "Forms": [
            {
                "DataFormatID": "5797",
                "DataFormatVersion": 42813,
                "FormName": "Vedleggsopplysninger",
                "FormType": "SubForm",
                "Schema": "https://altinn.no/api/metadata/formtask/4398/5/forms/5797/42813/xsd"
            }
        ],
        "MainForm": {
            "DataFormatID": "5786",
            "DataFormatVersion": 42725,
            "FormName": "Gjennomf\u00f8ringsplan",
            "FormType": "MainForm",
            "Schema": "https://altinn.no/api/metadata/formtask/4398/5/forms/5786/42725/xsd"
        },
        "ServiceCode": "4398",
        "ServiceEditionCode": 5,
        "ServiceName": "Gjennomf\u00f8ringsplan",
        "Url": "https://altinn.no/api/metadata/formtask/4398/5",
        "ValidFrom": "2020-01-10T13:27:01.663",
        "ValidTo": "2020-01-10T13:45:03.9"
    },
    {
        "Attchments": [
            {
                "AllowedFileTypes": "pdf, doc, jpeg, jpg, xls, tif, tiff, ppt, png, jpeg, docx, sos, txt, xlsx, xml",
                "AttachmentTypeName": "ErklaeringAnsvarsrett",
                "MaxAttachmentCount": 99,
                "MaxFileSize": 200,
                "MinAttachmentCount": 0
            },
            {
                "AllowedFileTypes": "pdf, jpeg, jpg, tif, tiff, png",
                "AttachmentTypeName": "Annet",
                "MaxAttachmentCount": 99,
                "MaxFileSize": 30,
                "MinAttachmentCount": 0
            }
        ],
        "Forms": [
            {
                "DataFormatID": "5797",
                "DataFormatVersion": 42813,
                "FormName": "Vedleggsopplysninger",
                "FormType": "SubForm",
                "Schema": "https://altinn.no/api/metadata/formtask/4398/4/forms/5797/42813/xsd"
            }
        ],
        "MainForm": {
            "DataFormatID": "5705",
            "DataFormatVersion": 42560,
            "FormName": "Gjennomf\u00f8ringsplan",
            "FormType": "MainForm",
            "Schema": "https://altinn.no/api/metadata/formtask/4398/4/forms/5705/42560/xsd"
        },
        "ServiceCode": "4398",
        "ServiceEditionCode": 4,
        "ServiceName": "Gjennomf\u00f8ringsplan",
        "Url": "https://altinn.no/api/metadata/formtask/4398/4",
        "ValidFrom": "2019-11-01T16:10:52.37",
        "ValidTo": "2047-11-22T00:29:00"
    },
    {
        "Attchments": [
            {
                "AllowedFileTypes": "pdf, doc, jpeg, jpg, xls, tif, tiff, ppt, png, docx, sos, txt, xlsx, xml",
                "AttachmentTypeName": "PlanForUavhengigKontroll",
                "MaxAttachmentCount": 10,
                "MaxFileSize": 200,
                "MinAttachmentCount": 1
            }
        ],
        "Forms": [],
        "MainForm": {
            "DataFormatID": "6340",
            "DataFormatVersion": 45019,
            "FormName": "Kontrollerkl\u00e6ring med sluttrapport",
            "FormType": "MainForm",
            "Schema": "https://altinn.no/api/metadata/formtask/5445/1/forms/6340/45019/xsd"
        },
        "ServiceCode": "5445",
        "ServiceEditionCode": 1,
        "ServiceName": "Kontrollerkl\u00e6ring opprettet ved distribusjon",
        "Url": "https://altinn.no/api/metadata/formtask/5445/1",
        "ValidFrom": "2019-12-05T11:00:00",
        "ValidTo": "2049-10-11T00:56:00"
    },
    {
        "Attchments": [
            {
                "AllowedFileTypes": "pdf, jpeg, jpg, tif, tiff, png",
                "AttachmentTypeName": "Situasjonsplan",
                "MaxAttachmentCount": 99,
                "MaxFileSize": 30,
                "MinAttachmentCount": 0
            },
            {
                "AllowedFileTypes": "pdf, jpeg, jpg, tif, tiff, png",
                "AttachmentTypeName": "Annet",
                "MaxAttachmentCount": 99,
                "MaxFileSize": 30,
                "MinAttachmentCount": 0
            },
            {
                "AllowedFileTypes": "pdf, jpeg, jpg, tif, tiff, png",
                "AttachmentTypeName": "TegningNyFasade",
                "MaxAttachmentCount": 99,
                "MaxFileSize": 30,
                "MinAttachmentCount": 0
            },
            {
                "AllowedFileTypes": "pdf, jpeg, jpg, tif, tiff, png",
                "AttachmentTypeName": "TegningNyPlan",
                "MaxAttachmentCount": 99,
                "MaxFileSize": 30,
                "MinAttachmentCount": 0
            },
            {
                "AllowedFileTypes": "pdf, jpeg, jpg, tif, tiff, png",
                "AttachmentTypeName": "TegningNyttSnitt",
                "MaxAttachmentCount": 99,
                "MaxFileSize": 30,
                "MinAttachmentCount": 0
            },
            {
                "AllowedFileTypes": "pdf, jpeg, jpg, tif, tiff, png",
                "AttachmentTypeName": "RedegjoerelseEstetikk",
                "MaxAttachmentCount": 99,
                "MaxFileSize": 30,
                "MinAttachmentCount": 0
            },
            {
                "AllowedFileTypes": "pdf, jpeg, jpg, tif, tiff, png",
                "AttachmentTypeName": "Folgebrev",
                "MaxAttachmentCount": 1,
                "MaxFileSize": 30,
                "MinAttachmentCount": 0
            },
            {
                "AllowedFileTypes": "pdf, jpeg, jpg, tif, tiff, png",
                "AttachmentTypeName": "Dispensasjonssoeknad",
                "MaxAttachmentCount": 99,
                "MaxFileSize": 30,
                "MinAttachmentCount": 0
            },
            {
                "AllowedFileTypes": "pdf, jpeg, jpg, tif, tiff, png",
                "AttachmentTypeName": "TegningEksisterendeSnitt",
                "MaxAttachmentCount": 99,
                "MaxFileSize": 30,
                "MinAttachmentCount": 0
            },
            {
                "AllowedFileTypes": "pdf, jpeg, jpg, tif, tiff, png",
                "AttachmentTypeName": "TegningEksisterendeFasade",
                "MaxAttachmentCount": 99,
                "MaxFileSize": 30,
                "MinAttachmentCount": 0
            }
        ],
        "Forms": [],
        "MainForm": {
            "DataFormatID": "6303",
            "DataFormatVersion": 44820,
            "FormName": "Nabovarsel",
            "FormType": "MainForm",
            "Schema": "https://altinn.no/api/metadata/formtask/4655/4/forms/6303/44820/xsd"
        },
        "ServiceCode": "4655",
        "ServiceEditionCode": 4,
        "ServiceName": "Nabovarsel",
        "Url": "https://altinn.no/api/metadata/formtask/4655/4",
        "ValidFrom": "2020-02-06T20:19:56.463",
        "ValidTo": "2047-10-30T15:55:00"
    },
    {
        "Attchments": [
            {
                "AllowedFileTypes": "pdf, jpeg, jpg, tif, tiff, png",
                "AttachmentTypeName": "Situasjonsplan",
                "MaxAttachmentCount": 99,
                "MaxFileSize": 30,
                "MinAttachmentCount": 0
            },
            {
                "AllowedFileTypes": "pdf, jpeg, jpg, tif, tiff, png",
                "AttachmentTypeName": "Annet",
                "MaxAttachmentCount": 99,
                "MaxFileSize": 30,
                "MinAttachmentCount": 0
            },
            {
                "AllowedFileTypes": "pdf, jpeg, jpg, tif, tiff, png",
                "AttachmentTypeName": "TegningNyFasade",
                "MaxAttachmentCount": 99,
                "MaxFileSize": 30,
                "MinAttachmentCount": 0
            },
            {
                "AllowedFileTypes": "pdf, jpeg, jpg, tif, tiff, png",
                "AttachmentTypeName": "TegningNyPlan",
                "MaxAttachmentCount": 99,
                "MaxFileSize": 30,
                "MinAttachmentCount": 0
            },
            {
                "AllowedFileTypes": "pdf, jpeg, jpg, tif, tiff, png",
                "AttachmentTypeName": "TegningNyttSnitt",
                "MaxAttachmentCount": 99,
                "MaxFileSize": 30,
                "MinAttachmentCount": 0
            },
            {
                "AllowedFileTypes": "pdf, jpeg, jpg, tif, tiff, png",
                "AttachmentTypeName": "RedegjoerelseEstetikk",
                "MaxAttachmentCount": 99,
                "MaxFileSize": 30,
                "MinAttachmentCount": 0
            },
            {
                "AllowedFileTypes": "pdf, jpeg, jpg, tif, tiff, png",
                "AttachmentTypeName": "Folgebrev",
                "MaxAttachmentCount": 1,
                "MaxFileSize": 30,
                "MinAttachmentCount": 0
            },
            {
                "AllowedFileTypes": "pdf, jpeg, jpg, tif, tiff, png",
                "AttachmentTypeName": "Dispensasjonssoeknad",
                "MaxAttachmentCount": 99,
                "MaxFileSize": 30,
                "MinAttachmentCount": 0
            },
            {
                "AllowedFileTypes": "pdf, jpeg, jpg, tif, tiff, png",
                "AttachmentTypeName": "TegningEksisterendeSnitt",
                "MaxAttachmentCount": 99,
                "MaxFileSize": 30,
                "MinAttachmentCount": 0
            },
            {
                "AllowedFileTypes": "pdf, jpeg, jpg, tif, tiff, png",
                "AttachmentTypeName": "TegningEksisterendeFasade",
                "MaxAttachmentCount": 99,
                "MaxFileSize": 30,
                "MinAttachmentCount": 0
            }
        ],
        "Forms": [],
        "MainForm": {
            "DataFormatID": "5791",
            "DataFormatVersion": 42760,
            "FormName": "Distribusjon av nabovarsel",
            "FormType": "MainForm",
            "Schema": "https://altinn.no/api/metadata/formtask/4655/3/forms/5791/42760/xsd"
        },
        "ServiceCode": "4655",
        "ServiceEditionCode": 3,
        "ServiceName": "Nabovarsel",
        "Url": "https://altinn.no/api/metadata/formtask/4655/3",
        "ValidFrom": "2020-02-06T20:09:47.57",
        "ValidTo": "2047-10-30T15:55:00"
    },
    {
        "Attchments": [],
        "Forms": [],
        "MainForm": {
            "DataFormatID": "5905",
            "DataFormatVersion": 43432,
            "FormName": "Samsvarserkl\u00e6ring",
            "FormType": "MainForm",
            "Schema": "https://altinn.no/api/metadata/formtask/5207/2/forms/5905/43432/xsd"
        },
        "ServiceCode": "5207",
        "ServiceEditionCode": 2,
        "ServiceName": "Samsvarserkl\u00e6ring opprettet ved distribusjon",
        "Url": "https://altinn.no/api/metadata/formtask/5207/2",
        "ValidFrom": "2019-12-05T11:00:00",
        "ValidTo": "2049-11-21T11:00:00"
    },
    {
        "Attchments": [
            {
                "AllowedFileTypes": "pdf, doc, jpeg, jpg, xls, tif, tiff, ppt, png, jpeg, docx, sos, txt, xlsx, xml",
                "AttachmentTypeName": "Nabomerknader",
                "MaxAttachmentCount": 99,
                "MaxFileSize": 200,
                "MinAttachmentCount": 0
            }
        ],
        "Forms": [],
        "MainForm": {
            "DataFormatID": "5703",
            "DataFormatVersion": 42543,
            "FormName": "Svar p\u00e5 nabovarsel",
            "FormType": "MainForm",
            "Schema": "https://altinn.no/api/metadata/formtask/4699/2/forms/5703/42543/xsd"
        },
        "ServiceCode": "4699",
        "ServiceEditionCode": 2,
        "ServiceName": "Svar p\u00e5 nabovarsel",
        "Url": "https://altinn.no/api/metadata/formtask/4699/2",
        "ValidFrom": "2019-03-14T08:16:25.2",
        "ValidTo": "2047-11-17T00:57:00"
    },
    {
        "Attchments": [
            {
                "AllowedFileTypes": "pdf, doc, jpeg, jpg, xls, tif, tiff, ppt, png, jpeg, docx, sos, txt, xlsx, xml",
                "AttachmentTypeName": "Nabomerknader",
                "MaxAttachmentCount": 99,
                "MaxFileSize": 200,
                "MinAttachmentCount": 0
            }
        ],
        "Forms": [],
        "MainForm": {
            "DataFormatID": "6173",
            "DataFormatVersion": 44215,
            "FormName": "Svar p\u00e5 nabovarsel",
            "FormType": "MainForm",
            "Schema": "https://altinn.no/api/metadata/formtask/4699/3/forms/6173/44215/xsd"
        },
        "ServiceCode": "4699",
        "ServiceEditionCode": 3,
        "ServiceName": "Svar p\u00e5 nabovarsel",
        "Url": "https://altinn.no/api/metadata/formtask/4699/3",
        "ValidFrom": "2019-09-12T15:01:15.82",
        "ValidTo": "2049-03-25T12:49:00"
    },
    {
        "Attchments": [
            {
                "AllowedFileTypes": "ifc",
                "AttachmentTypeName": "ByggesaksBIM",
                "MaxAttachmentCount": 10,
                "MaxFileSize": 200,
                "MinAttachmentCount": 0
            },
            {
                "AllowedFileTypes": "*.*",
                "AttachmentTypeName": "UttalelseKulturminnemyndighet",
                "MaxAttachmentCount": 10,
                "MaxFileSize": 200,
                "MinAttachmentCount": 0
            },
            {
                "AllowedFileTypes": "*.*",
                "AttachmentTypeName": "SamtykkeArbeidstilsynet",
                "MaxAttachmentCount": 10,
                "MaxFileSize": 200,
                "MinAttachmentCount": 0
            },
            {
                "AllowedFileTypes": "*.*",
                "AttachmentTypeName": "AvkjoeringstillatelseVegmyndighet",
                "MaxAttachmentCount": 10,
                "MaxFileSize": 200,
                "MinAttachmentCount": 0
            },
            {
                "AllowedFileTypes": "*.*",
                "AttachmentTypeName": "RedegjoerelseUnntakTEK",
                "MaxAttachmentCount": 10,
                "MaxFileSize": 200,
                "MinAttachmentCount": 0
            },
            {
                "AllowedFileTypes": "*.*",
                "AttachmentTypeName": "UnderlagUtnytting",
                "MaxAttachmentCount": 10,
                "MaxFileSize": 200,
                "MinAttachmentCount": 0
            },
            {
                "AllowedFileTypes": "*.*",
                "AttachmentTypeName": "KvitteringNabovarsel",
                "MaxAttachmentCount": 99,
                "MaxFileSize": 200,
                "MinAttachmentCount": 0
            },
            {
                "AllowedFileTypes": "pdf, doc, jpeg, jpg, xls, tif, tiff, ppt, png, jpeg, docx, sos, txt, xlsx, xml",
                "AttachmentTypeName": "ErklaeringAnsvarsrett",
                "MaxAttachmentCount": 99,
                "MaxFileSize": 200,
                "MinAttachmentCount": 0
            },
            {
                "AllowedFileTypes": "pdf, doc, jpeg, jpg, xls, tif, tiff, ppt, png, jpeg, docx, sos, txt, xlsx, xml",
                "AttachmentTypeName": "Nabomerknader",
                "MaxAttachmentCount": 99,
                "MaxFileSize": 200,
                "MinAttachmentCount": 0
            },
            {
                "AllowedFileTypes": "pdf, doc, jpeg, jpg, xls, tif, tiff, ppt, png, jpeg, docx, sos, txt, xlsx, xml",
                "AttachmentTypeName": "Avkjoerselsplan",
                "MaxAttachmentCount": 99,
                "MaxFileSize": 200,
                "MinAttachmentCount": 0
            },
            {
                "AllowedFileTypes": "pdf, jpeg, jpg, tif, tiff, png",
                "AttachmentTypeName": "Situasjonsplan",
                "MaxAttachmentCount": 99,
                "MaxFileSize": 30,
                "MinAttachmentCount": 0
            },
            {
                "AllowedFileTypes": "pdf, doc, jpeg, jpg, xls, tif, tiff, ppt, png, jpeg, docx, sos, txt, xlsx, xml",
                "AttachmentTypeName": "RedegjoerelseGrunnforhold",
                "MaxAttachmentCount": 99,
                "MaxFileSize": 200,
                "MinAttachmentCount": 0
            },
            {
                "AllowedFileTypes": "pdf, doc, jpeg, jpg, xls, tif, tiff, ppt, png, jpeg, docx, sos, txt, xlsx, xml",
                "AttachmentTypeName": "Gjennomfoeringsplan",
                "MaxAttachmentCount": 99,
                "MaxFileSize": 200,
                "MinAttachmentCount": 0
            },
            {
                "AllowedFileTypes": "pdf, doc, jpeg, jpg, xls, tif, tiff, ppt, png, jpeg, docx, sos, txt, xlsx, xml",
                "AttachmentTypeName": "BoligspesifikasjonMatrikkel",
                "MaxAttachmentCount": 99,
                "MaxFileSize": 200,
                "MinAttachmentCount": 0
            },
            {
                "AllowedFileTypes": "pdf, doc, jpeg, jpg, xls, tif, tiff, ppt, png, jpeg, docx, sos, txt, xlsx, xml",
                "AttachmentTypeName": "UttalelseVedtakAnnenOffentligMyndighet",
                "MaxAttachmentCount": 99,
                "MaxFileSize": 200,
                "MinAttachmentCount": 0
            },
            {
                "AllowedFileTypes": "pdf, jpeg, jpg, tif, tiff, png",
                "AttachmentTypeName": "Annet",
                "MaxAttachmentCount": 99,
                "MaxFileSize": 30,
                "MinAttachmentCount": 0
            },
            {
                "AllowedFileTypes": "pdf, jpeg, jpg, tif, tiff, png",
                "AttachmentTypeName": "TegningNyFasade",
                "MaxAttachmentCount": 99,
                "MaxFileSize": 30,
                "MinAttachmentCount": 0
            },
            {
                "AllowedFileTypes": "pdf, jpeg, jpg, tif, tiff, png",
                "AttachmentTypeName": "TegningNyPlan",
                "MaxAttachmentCount": 99,
                "MaxFileSize": 30,
                "MinAttachmentCount": 0
            },
            {
                "AllowedFileTypes": "pdf, jpeg, jpg, tif, tiff, png",
                "AttachmentTypeName": "TegningNyttSnitt",
                "MaxAttachmentCount": 99,
                "MaxFileSize": 30,
                "MinAttachmentCount": 0
            },
            {
                "AllowedFileTypes": "pdf, doc, jpeg, jpg, xls, tif, tiff, ppt, png, jpeg, docx, sos, txt, xlsx, xml",
                "AttachmentTypeName": "Nabovarsel",
                "MaxAttachmentCount": 99,
                "MaxFileSize": 30,
                "MinAttachmentCount": 0
            },
            {
                "AllowedFileTypes": "pdf, doc, jpeg, jpg, xls, tif, tiff, ppt, png, jpeg, docx, sos, txt, xlsx, xml",
                "AttachmentTypeName": "KommentarNabomerknader",
                "MaxAttachmentCount": 99,
                "MaxFileSize": 200,
                "MinAttachmentCount": 0
            },
            {
                "AllowedFileTypes": "pdf, doc, jpeg, jpg, xls, tif, tiff, ppt, png, jpeg, docx, sos, txt, xlsx, xml",
                "AttachmentTypeName": "AvklaringHoyspent",
                "MaxAttachmentCount": 10,
                "MaxFileSize": 200,
                "MinAttachmentCount": 0
            },
            {
                "AllowedFileTypes": "pdf, jpeg, jpg, tif, tiff, png",
                "AttachmentTypeName": "RedegjoerelseEstetikk",
                "MaxAttachmentCount": 99,
                "MaxFileSize": 30,
                "MinAttachmentCount": 0
            },
            {
                "AllowedFileTypes": "pdf, jpeg, jpg, tif, tiff, png",
                "AttachmentTypeName": "Folgebrev",
                "MaxAttachmentCount": 1,
                "MaxFileSize": 30,
                "MinAttachmentCount": 0
            },
            {
                "AllowedFileTypes": "pdf, jpeg, jpg, tif, tiff, png",
                "AttachmentTypeName": "Dispensasjonssoeknad",
                "MaxAttachmentCount": 99,
                "MaxFileSize": 30,
                "MinAttachmentCount": 0
            },
            {
                "AllowedFileTypes": "pdf, doc, jpeg, jpg, xls, tif, tiff, ppt, png, jpeg, docx, sos, txt, xlsx, xml",
                "AttachmentTypeName": "Foto",
                "MaxAttachmentCount": 99,
                "MaxFileSize": 200,
                "MinAttachmentCount": 0
            },
            {
                "AllowedFileTypes": "*.*",
                "AttachmentTypeName": "SamtykkePlassering",
                "MaxAttachmentCount": 10,
                "MaxFileSize": 200,
                "MinAttachmentCount": 0
            },
            {
                "AllowedFileTypes": "*.*",
                "AttachmentTypeName": "Utomhusplan",
                "MaxAttachmentCount": 10,
                "MaxFileSize": 200,
                "MinAttachmentCount": 0
            }
        ],
        "Forms": [
            {
                "DataFormatID": "5625",
                "DataFormatVersion": 42144,
                "FormName": "Matrikkelopplysninger",
                "FormType": "SubForm",
                "Schema": "https://altinn.no/api/metadata/formtask/4402/1/forms/5625/42144/xsd"
            },
            {
                "DataFormatID": "5826",
                "DataFormatVersion": 42895,
                "FormName": "Gjenpart nabovarsel",
                "FormType": "SubForm",
                "Schema": "https://altinn.no/api/metadata/formtask/4402/1/forms/5826/42895/xsd"
            },
            {
                "DataFormatID": "5797",
                "DataFormatVersion": 42813,
                "FormName": "Vedleggsopplysninger",
                "FormType": "SubForm",
                "Schema": "https://altinn.no/api/metadata/formtask/4402/1/forms/5797/42813/xsd"
            },
            {
                "DataFormatID": "5786",
                "DataFormatVersion": 42725,
                "FormName": "Gjennomf\u00f8ringsplan",
                "FormType": "SubForm",
                "Schema": "https://altinn.no/api/metadata/formtask/4402/1/forms/5786/42725/xsd"
            }
        ],
        "MainForm": {
            "DataFormatID": "5689",
            "DataFormatVersion": 42350,
            "FormName": "S\u00f8knad om endring",
            "FormType": "MainForm",
            "Schema": "https://altinn.no/api/metadata/formtask/4402/1/forms/5689/42350/xsd"
        },
        "ServiceCode": "4402",
        "ServiceEditionCode": 1,
        "ServiceName": "S\u00f8knad om endring av gitt tillatelse eller godkjenning",
        "Url": "https://altinn.no/api/metadata/formtask/4402/1",
        "ValidFrom": "2020-01-13T13:07:02.143",
        "ValidTo": "2047-09-19T00:00:00"
    },
    {
        "Attchments": [
            {
                "AllowedFileTypes": "pdf, doc, jpeg, jpg, xls, tif, tiff, ppt, png, jpeg, docx, sos, txt, xlsx, xml",
                "AttachmentTypeName": "Avkjoerselsplan",
                "MaxAttachmentCount": 99,
                "MaxFileSize": 200,
                "MinAttachmentCount": 0
            },
            {
                "AllowedFileTypes": "pdf, jpeg, jpg, tif, tiff, png",
                "AttachmentTypeName": "Situasjonsplan",
                "MaxAttachmentCount": 99,
                "MaxFileSize": 30,
                "MinAttachmentCount": 0
            },
            {
                "AllowedFileTypes": "pdf, jpeg, jpg, tif, tiff, png",
                "AttachmentTypeName": "Annet",
                "MaxAttachmentCount": 99,
                "MaxFileSize": 30,
                "MinAttachmentCount": 0
            },
            {
                "AllowedFileTypes": "pdf, jpeg, jpg, tif, tiff, png",
                "AttachmentTypeName": "TegningNyFasade",
                "MaxAttachmentCount": 99,
                "MaxFileSize": 30,
                "MinAttachmentCount": 0
            },
            {
                "AllowedFileTypes": "pdf, jpeg, jpg, tif, tiff, png",
                "AttachmentTypeName": "TegningNyPlan",
                "MaxAttachmentCount": 99,
                "MaxFileSize": 30,
                "MinAttachmentCount": 0
            },
            {
                "AllowedFileTypes": "pdf, jpeg, jpg, tif, tiff, png",
                "AttachmentTypeName": "TegningNyttSnitt",
                "MaxAttachmentCount": 99,
                "MaxFileSize": 30,
                "MinAttachmentCount": 0
            },
            {
                "AllowedFileTypes": "pdf, doc, jpeg, jpg, xls, tif, tiff, ppt, png, jpeg, docx, sos, txt, xlsx, xml",
                "AttachmentTypeName": "SluttrapportForAvfallsplan",
                "MaxAttachmentCount": 99,
                "MaxFileSize": 200,
                "MinAttachmentCount": 0
            },
            {
                "AllowedFileTypes": "pdf, jpeg, jpg, tif, tiff, png",
                "AttachmentTypeName": "Folgebrev",
                "MaxAttachmentCount": 1,
                "MaxFileSize": 30,
                "MinAttachmentCount": 0
            },
            {
                "AllowedFileTypes": "pdf, jpeg, jpg, tif, tiff, png",
                "AttachmentTypeName": "KvitteringForLevertAvfall",
                "MaxAttachmentCount": 99,
                "MaxFileSize": 30,
                "MinAttachmentCount": 0
            }
        ],
        "Forms": [
            {
                "DataFormatID": "5786",
                "DataFormatVersion": 42725,
                "FormName": "Gjennomf\u00f8ringsplan",
                "FormType": "SubForm",
                "Schema": "https://altinn.no/api/metadata/formtask/4400/2/forms/5786/42725/xsd"
            },
            {
                "DataFormatID": "5625",
                "DataFormatVersion": 42144,
                "FormName": "Matrikkelopplysninger",
                "FormType": "SubForm",
                "Schema": "https://altinn.no/api/metadata/formtask/4400/2/forms/5625/42144/xsd"
            },
            {
                "DataFormatID": "5797",
                "DataFormatVersion": 42813,
                "FormName": "Vedleggsopplysninger",
                "FormType": "SubForm",
                "Schema": "https://altinn.no/api/metadata/formtask/4400/2/forms/5797/42813/xsd"
            }
        ],
        "MainForm": {
            "DataFormatID": "5855",
            "DataFormatVersion": 43192,
            "FormName": "Ferdigattest",
            "FormType": "MainForm",
            "Schema": "https://altinn.no/api/metadata/formtask/4400/2/forms/5855/43192/xsd"
        },
        "ServiceCode": "4400",
        "ServiceEditionCode": 2,
        "ServiceName": "S\u00f8knad om ferdigattest",
        "Url": "https://altinn.no/api/metadata/formtask/4400/2",
        "ValidFrom": "2020-02-04T10:15:27.383",
        "ValidTo": "2046-02-18T13:37:00"
    },
    {
        "Attchments": [
            {
                "AllowedFileTypes": "*.*",
                "AttachmentTypeName": "SamtykkeArbeidstilsynet",
                "MaxAttachmentCount": 10,
                "MaxFileSize": 200,
                "MinAttachmentCount": 0
            },
            {
                "AllowedFileTypes": "pdf, doc, jpeg, jpg, xls, tif, tiff, ppt, png, jpeg, docx, sos, txt, xlsx, xml",
                "AttachmentTypeName": "ErklaeringAnsvarsrett",
                "MaxAttachmentCount": 99,
                "MaxFileSize": 200,
                "MinAttachmentCount": 0
            },
            {
                "AllowedFileTypes": "pdf, doc, jpeg, jpg, xls, tif, tiff, ppt, png, jpeg, docx, sos, txt, xlsx, xml",
                "AttachmentTypeName": "Avkjoerselsplan",
                "MaxAttachmentCount": 99,
                "MaxFileSize": 200,
                "MinAttachmentCount": 0
            },
            {
                "AllowedFileTypes": "pdf, jpeg, jpg, tif, tiff, png",
                "AttachmentTypeName": "Situasjonsplan",
                "MaxAttachmentCount": 99,
                "MaxFileSize": 30,
                "MinAttachmentCount": 0
            },
            {
                "AllowedFileTypes": "pdf, doc, jpeg, jpg, xls, tif, tiff, ppt, png, jpeg, docx, sos, txt, xlsx, xml",
                "AttachmentTypeName": "RedegjoerelseGrunnforhold",
                "MaxAttachmentCount": 99,
                "MaxFileSize": 200,
                "MinAttachmentCount": 0
            },
            {
                "AllowedFileTypes": "pdf, doc, jpeg, jpg, xls, tif, tiff, ppt, png, jpeg, docx, sos, txt, xlsx, xml",
                "AttachmentTypeName": "Gjennomfoeringsplan",
                "MaxAttachmentCount": 99,
                "MaxFileSize": 200,
                "MinAttachmentCount": 0
            },
            {
                "AllowedFileTypes": "pdf, doc, jpeg, jpg, xls, tif, tiff, ppt, png, jpeg, docx, sos, txt, xlsx, xml",
                "AttachmentTypeName": "BoligspesifikasjonMatrikkel",
                "MaxAttachmentCount": 99,
                "MaxFileSize": 200,
                "MinAttachmentCount": 0
            },
            {
                "AllowedFileTypes": "pdf, doc, jpeg, jpg, xls, tif, tiff, ppt, png, jpeg, docx, sos, txt, xlsx, xml",
                "AttachmentTypeName": "UttalelseVedtakAnnenOffentligMyndighet",
                "MaxAttachmentCount": 99,
                "MaxFileSize": 200,
                "MinAttachmentCount": 0
            },
            {
                "AllowedFileTypes": "pdf, jpeg, jpg, tif, tiff, png",
                "AttachmentTypeName": "Annet",
                "MaxAttachmentCount": 99,
                "MaxFileSize": 30,
                "MinAttachmentCount": 0
            },
            {
                "AllowedFileTypes": "pdf, doc, jpeg, jpg, xls, tif, tiff, ppt, png, jpeg, docx, sos, txt, xlsx, xml",
                "AttachmentTypeName": "Kart",
                "MaxAttachmentCount": 99,
                "MaxFileSize": 200,
                "MinAttachmentCount": 0
            },
            {
                "AllowedFileTypes": "pdf, doc, jpeg, jpg, xls, tif, tiff, ppt, png, jpeg, docx, sos, txt, xlsx, xml",
                "AttachmentTypeName": "RedegjoerelseForurensetGrunn",
                "MaxAttachmentCount": 99,
                "MaxFileSize": 200,
                "MinAttachmentCount": 0
            },
            {
                "AllowedFileTypes": "pdf, doc, jpeg, jpg, xls, tif, tiff, ppt, png, jpeg, docx, sos, txt, xlsx, xml",
                "AttachmentTypeName": "RedegjoerelseAndreNaturMiljoeforhold",
                "MaxAttachmentCount": 99,
                "MaxFileSize": 200,
                "MinAttachmentCount": 0
            },
            {
                "AllowedFileTypes": "pdf, doc, jpeg, jpg, xls, tif, tiff, ppt, png, jpeg, docx, sos, txt, xlsx, xml",
                "AttachmentTypeName": "RedegjoerelseSkredOgFlom",
                "MaxAttachmentCount": 99,
                "MaxFileSize": 200,
                "MinAttachmentCount": 0
            },
            {
                "AllowedFileTypes": "pdf, jpeg, jpg, tif, tiff, png",
                "AttachmentTypeName": "TegningNyFasade",
                "MaxAttachmentCount": 99,
                "MaxFileSize": 30,
                "MinAttachmentCount": 0
            },
            {
                "AllowedFileTypes": "pdf, jpeg, jpg, tif, tiff, png",
                "AttachmentTypeName": "TegningNyPlan",
                "MaxAttachmentCount": 99,
                "MaxFileSize": 30,
                "MinAttachmentCount": 0
            },
            {
                "AllowedFileTypes": "pdf, jpeg, jpg, tif, tiff, png",
                "AttachmentTypeName": "TegningNyttSnitt",
                "MaxAttachmentCount": 99,
                "MaxFileSize": 30,
                "MinAttachmentCount": 0
            },
            {
                "AllowedFileTypes": "pdf, doc, jpeg, jpg, xls, tif, tiff, ppt, png, jpeg, docx, sos, txt, xlsx, xml",
                "AttachmentTypeName": "TegningEksisterendePlan",
                "MaxAttachmentCount": 99,
                "MaxFileSize": 200,
                "MinAttachmentCount": 0
            },
            {
                "AllowedFileTypes": "pdf, doc, jpeg, jpg, xls, tif, tiff, ppt, png, jpeg, docx, sos, txt, xlsx, xml",
                "AttachmentTypeName": "AvklaringHoyspent",
                "MaxAttachmentCount": 10,
                "MaxFileSize": 200,
                "MinAttachmentCount": 0
            },
            {
                "AllowedFileTypes": "pdf, doc, jpeg, jpg, xls, tif, tiff, ppt, png, jpeg, docx, sos, txt, xlsx, xml",
                "AttachmentTypeName": "AvklaringVA",
                "MaxAttachmentCount": 10,
                "MaxFileSize": 200,
                "MinAttachmentCount": 0
            },
            {
                "AllowedFileTypes": "pdf, jpeg, jpg, tif, tiff, png",
                "AttachmentTypeName": "RedegjoerelseEstetikk",
                "MaxAttachmentCount": 99,
                "MaxFileSize": 30,
                "MinAttachmentCount": 0
            },
            {
                "AllowedFileTypes": "pdf, jpeg, jpg, tif, tiff, png",
                "AttachmentTypeName": "TegningEksisterendeSnitt",
                "MaxAttachmentCount": 99,
                "MaxFileSize": 30,
                "MinAttachmentCount": 0
            },
            {
                "AllowedFileTypes": "pdf, jpeg, jpg, tif, tiff, png",
                "AttachmentTypeName": "TegningEksisterendeFasade",
                "MaxAttachmentCount": 99,
                "MaxFileSize": 30,
                "MinAttachmentCount": 0
            }
        ],
        "Forms": [
            {
                "DataFormatID": "5786",
                "DataFormatVersion": 42725,
                "FormName": "Gjennomf\u00f8ringsplan",
                "FormType": "SubForm",
                "Schema": "https://altinn.no/api/metadata/formtask/4401/2/forms/5786/42725/xsd"
            },
            {
                "DataFormatID": "5797",
                "DataFormatVersion": 42813,
                "FormName": "Vedleggsopplysninger",
                "FormType": "SubForm",
                "Schema": "https://altinn.no/api/metadata/formtask/4401/2/forms/5797/42813/xsd"
            },
            {
                "DataFormatID": "5625",
                "DataFormatVersion": 42144,
                "FormName": "Matrikkelopplysninger",
                "FormType": "SubForm",
                "Schema": "https://altinn.no/api/metadata/formtask/4401/2/forms/5625/42144/xsd"
            },
            {
                "DataFormatID": "5700",
                "DataFormatVersion": 42467,
                "FormName": "Erkl\u00e6ring om ansvarsrett",
                "FormType": "SubForm",
                "Schema": "https://altinn.no/api/metadata/formtask/4401/2/forms/5700/42467/xsd"
            },
            {
                "DataFormatID": "5500",
                "DataFormatVersion": 41791,
                "FormName": "S\u00f8knad om ansvarsrett for selvbygger",
                "FormType": "SubForm",
                "Schema": "https://altinn.no/api/metadata/formtask/4401/2/forms/5500/41791/xsd"
            }
        ],
        "MainForm": {
            "DataFormatID": "5845",
            "DataFormatVersion": 43007,
            "FormName": "S\u00f8knad om igangsettingstillatelse",
            "FormType": "MainForm",
            "Schema": "https://altinn.no/api/metadata/formtask/4401/2/forms/5845/43007/xsd"
        },
        "ServiceCode": "4401",
        "ServiceEditionCode": 2,
        "ServiceName": "S\u00f8knad om igangsettingstillatelse",
        "Url": "https://altinn.no/api/metadata/formtask/4401/2",
        "ValidFrom": "2020-01-13T08:10:06.853",
        "ValidTo": "2046-02-15T15:58:00"
    },
    {
        "Attchments": [
            {
                "AllowedFileTypes": "pdf, doc, jpeg, jpg, xls, tif, tiff, ppt, png, jpeg, docx, sos, txt, xlsx, xml",
                "AttachmentTypeName": "Avkjoerselsplan",
                "MaxAttachmentCount": 99,
                "MaxFileSize": 200,
                "MinAttachmentCount": 0
            },
            {
                "AllowedFileTypes": "pdf, jpeg, jpg, tif, tiff, png",
                "AttachmentTypeName": "Situasjonsplan",
                "MaxAttachmentCount": 99,
                "MaxFileSize": 30,
                "MinAttachmentCount": 0
            },
            {
                "AllowedFileTypes": "pdf, doc, jpeg, jpg, xls, tif, tiff, ppt, png, jpeg, docx, sos, txt, xlsx, xml",
                "AttachmentTypeName": "RedegjoerelseGrunnforhold",
                "MaxAttachmentCount": 99,
                "MaxFileSize": 200,
                "MinAttachmentCount": 0
            },
            {
                "AllowedFileTypes": "pdf, doc, jpeg, jpg, xls, tif, tiff, ppt, png, jpeg, docx, sos, txt, xlsx, xml",
                "AttachmentTypeName": "Gjennomfoeringsplan",
                "MaxAttachmentCount": 99,
                "MaxFileSize": 200,
                "MinAttachmentCount": 0
            },
            {
                "AllowedFileTypes": "pdf, doc, jpeg, jpg, xls, tif, tiff, ppt, png, jpeg, docx, sos, txt, xlsx, xml",
                "AttachmentTypeName": "BoligspesifikasjonMatrikkel",
                "MaxAttachmentCount": 99,
                "MaxFileSize": 200,
                "MinAttachmentCount": 0
            },
            {
                "AllowedFileTypes": "pdf, doc, jpeg, jpg, xls, tif, tiff, ppt, png, jpeg, docx, sos, txt, xlsx, xml",
                "AttachmentTypeName": "UttalelseVedtakAnnenOffentligMyndighet",
                "MaxAttachmentCount": 99,
                "MaxFileSize": 200,
                "MinAttachmentCount": 0
            },
            {
                "AllowedFileTypes": "pdf, jpeg, jpg, tif, tiff, png",
                "AttachmentTypeName": "Annet",
                "MaxAttachmentCount": 99,
                "MaxFileSize": 30,
                "MinAttachmentCount": 0
            },
            {
                "AllowedFileTypes": "pdf, doc, jpeg, jpg, xls, tif, tiff, ppt, png, jpeg, docx, sos, txt, xlsx, xml",
                "AttachmentTypeName": "Kart",
                "MaxAttachmentCount": 99,
                "MaxFileSize": 200,
                "MinAttachmentCount": 0
            },
            {
                "AllowedFileTypes": "pdf, doc, jpeg, jpg, xls, tif, tiff, ppt, png, jpeg, docx, sos, txt, xlsx, xml",
                "AttachmentTypeName": "RedegjoerelseForurensetGrunn",
                "MaxAttachmentCount": 99,
                "MaxFileSize": 200,
                "MinAttachmentCount": 0
            },
            {
                "AllowedFileTypes": "pdf, doc, jpeg, jpg, xls, tif, tiff, ppt, png, jpeg, docx, sos, txt, xlsx, xml",
                "AttachmentTypeName": "RedegjoerelseAndreNaturMiljoeforhold",
                "MaxAttachmentCount": 99,
                "MaxFileSize": 200,
                "MinAttachmentCount": 0
            },
            {
                "AllowedFileTypes": "pdf, doc, jpeg, jpg, xls, tif, tiff, ppt, png, jpeg, docx, sos, txt, xlsx, xml",
                "AttachmentTypeName": "RedegjoerelseSkredOgFlom",
                "MaxAttachmentCount": 99,
                "MaxFileSize": 200,
                "MinAttachmentCount": 0
            },
            {
                "AllowedFileTypes": "pdf, jpeg, jpg, tif, tiff, png",
                "AttachmentTypeName": "TegningNyFasade",
                "MaxAttachmentCount": 99,
                "MaxFileSize": 30,
                "MinAttachmentCount": 0
            },
            {
                "AllowedFileTypes": "pdf, jpeg, jpg, tif, tiff, png",
                "AttachmentTypeName": "TegningNyPlan",
                "MaxAttachmentCount": 99,
                "MaxFileSize": 30,
                "MinAttachmentCount": 0
            },
            {
                "AllowedFileTypes": "pdf, jpeg, jpg, tif, tiff, png",
                "AttachmentTypeName": "TegningNyttSnitt",
                "MaxAttachmentCount": 99,
                "MaxFileSize": 30,
                "MinAttachmentCount": 0
            },
            {
                "AllowedFileTypes": "pdf, jpeg, jpg, tif, tiff, png",
                "AttachmentTypeName": "RedegjoerelseEstetikk",
                "MaxAttachmentCount": 99,
                "MaxFileSize": 30,
                "MinAttachmentCount": 0
            },
            {
                "AllowedFileTypes": "pdf, jpeg, jpg, tif, tiff, png",
                "AttachmentTypeName": "Folgebrev",
                "MaxAttachmentCount": 1,
                "MaxFileSize": 30,
                "MinAttachmentCount": 0
            }
        ],
        "Forms": [
            {
                "DataFormatID": "5786",
                "DataFormatVersion": 42725,
                "FormName": "Gjennomf\u00f8ringsplan",
                "FormType": "SubForm",
                "Schema": "https://altinn.no/api/metadata/formtask/4399/5/forms/5786/42725/xsd"
            },
            {
                "DataFormatID": "5625",
                "DataFormatVersion": 42144,
                "FormName": "Matrikkelopplysninger",
                "FormType": "SubForm",
                "Schema": "https://altinn.no/api/metadata/formtask/4399/5/forms/5625/42144/xsd"
            },
            {
                "DataFormatID": "5797",
                "DataFormatVersion": 42813,
                "FormName": "Vedleggsopplysninger",
                "FormType": "SubForm",
                "Schema": "https://altinn.no/api/metadata/formtask/4399/5/forms/5797/42813/xsd"
            },
            {
                "DataFormatID": "5584",
                "DataFormatVersion": 42035,
                "FormName": "Avfallsplan",
                "FormType": "SubForm",
                "Schema": "https://altinn.no/api/metadata/formtask/4399/5/forms/5584/42035/xsd"
            }
        ],
        "MainForm": {
            "DataFormatID": "5844",
            "DataFormatVersion": 43006,
            "FormName": "S\u00f8knad om midlertidig brukstillatelse",
            "FormType": "MainForm",
            "Schema": "https://altinn.no/api/metadata/formtask/4399/5/forms/5844/43006/xsd"
        },
        "ServiceCode": "4399",
        "ServiceEditionCode": 5,
        "ServiceName": "S\u00f8knad om midlertidig brukstillatelse",
        "Url": "https://altinn.no/api/metadata/formtask/4399/5",
        "ValidFrom": "2020-01-20T00:00:00",
        "ValidTo": "2046-02-18T15:24:00"
    },
    {
        "Attchments": [
            {
                "AllowedFileTypes": "ifc",
                "AttachmentTypeName": "ByggesaksBIM",
                "MaxAttachmentCount": 10,
                "MaxFileSize": 200,
                "MinAttachmentCount": 0
            },
            {
                "AllowedFileTypes": "*.*",
                "AttachmentTypeName": "UttalelseKulturminnemyndighet",
                "MaxAttachmentCount": 10,
                "MaxFileSize": 200,
                "MinAttachmentCount": 0
            },
            {
                "AllowedFileTypes": "*.*",
                "AttachmentTypeName": "SamtykkeArbeidstilsynet",
                "MaxAttachmentCount": 10,
                "MaxFileSize": 200,
                "MinAttachmentCount": 0
            },
            {
                "AllowedFileTypes": "*.*",
                "AttachmentTypeName": "AvkjoeringstillatelseVegmyndighet",
                "MaxAttachmentCount": 10,
                "MaxFileSize": 200,
                "MinAttachmentCount": 0
            },
            {
                "AllowedFileTypes": "*.*",
                "AttachmentTypeName": "RedegjoerelseUnntakTEK",
                "MaxAttachmentCount": 10,
                "MaxFileSize": 200,
                "MinAttachmentCount": 0
            },
            {
                "AllowedFileTypes": "*.*",
                "AttachmentTypeName": "UnderlagUtnytting",
                "MaxAttachmentCount": 10,
                "MaxFileSize": 200,
                "MinAttachmentCount": 0
            },
            {
                "AllowedFileTypes": "*.*",
                "AttachmentTypeName": "KvitteringNabovarsel",
                "MaxAttachmentCount": 99,
                "MaxFileSize": 200,
                "MinAttachmentCount": 0
            },
            {
                "AllowedFileTypes": "pdf, doc, jpeg, jpg, xls, tif, tiff, ppt, png, jpeg, docx, sos, txt, xlsx, xml",
                "AttachmentTypeName": "ErklaeringAnsvarsrett",
                "MaxAttachmentCount": 99,
                "MaxFileSize": 200,
                "MinAttachmentCount": 0
            },
            {
                "AllowedFileTypes": "pdf, doc, jpeg, jpg, xls, tif, tiff, ppt, png, jpeg, docx, sos, txt, xlsx, xml",
                "AttachmentTypeName": "Nabomerknader",
                "MaxAttachmentCount": 99,
                "MaxFileSize": 200,
                "MinAttachmentCount": 0
            },
            {
                "AllowedFileTypes": "pdf, doc, jpeg, jpg, xls, tif, tiff, ppt, png, jpeg, docx, sos, txt, xlsx, xml",
                "AttachmentTypeName": "Avkjoerselsplan",
                "MaxAttachmentCount": 99,
                "MaxFileSize": 200,
                "MinAttachmentCount": 0
            },
            {
                "AllowedFileTypes": "pdf, jpeg, jpg, tif, tiff, png",
                "AttachmentTypeName": "Situasjonsplan",
                "MaxAttachmentCount": 99,
                "MaxFileSize": 30,
                "MinAttachmentCount": 0
            },
            {
                "AllowedFileTypes": "pdf, doc, jpeg, jpg, xls, tif, tiff, ppt, png, jpeg, docx, sos, txt, xlsx, xml",
                "AttachmentTypeName": "RedegjoerelseGrunnforhold",
                "MaxAttachmentCount": 99,
                "MaxFileSize": 200,
                "MinAttachmentCount": 0
            },
            {
                "AllowedFileTypes": "pdf, doc, jpeg, jpg, xls, tif, tiff, ppt, png, jpeg, docx, sos, txt, xlsx, xml",
                "AttachmentTypeName": "Gjennomfoeringsplan",
                "MaxAttachmentCount": 99,
                "MaxFileSize": 200,
                "MinAttachmentCount": 0
            },
            {
                "AllowedFileTypes": "pdf, doc, jpeg, jpg, xls, tif, tiff, ppt, png, jpeg, docx, sos, txt, xlsx, xml",
                "AttachmentTypeName": "BoligspesifikasjonMatrikkel",
                "MaxAttachmentCount": 99,
                "MaxFileSize": 200,
                "MinAttachmentCount": 0
            },
            {
                "AllowedFileTypes": "pdf, doc, jpeg, jpg, xls, tif, tiff, ppt, png, jpeg, docx, sos, txt, xlsx, xml",
                "AttachmentTypeName": "UttalelseVedtakAnnenOffentligMyndighet",
                "MaxAttachmentCount": 99,
                "MaxFileSize": 200,
                "MinAttachmentCount": 0
            },
            {
                "AllowedFileTypes": "pdf, jpeg, jpg, tif, tiff, png",
                "AttachmentTypeName": "Annet",
                "MaxAttachmentCount": 99,
                "MaxFileSize": 30,
                "MinAttachmentCount": 0
            },
            {
                "AllowedFileTypes": "pdf, doc, jpeg, jpg, xls, tif, tiff, ppt, png, jpeg, docx, sos, txt, xlsx, xml",
                "AttachmentTypeName": "Kart",
                "MaxAttachmentCount": 99,
                "MaxFileSize": 200,
                "MinAttachmentCount": 0
            },
            {
                "AllowedFileTypes": "pdf, doc, jpeg, jpg, xls, tif, tiff, ppt, png, jpeg, docx, sos, txt, xlsx, xml",
                "AttachmentTypeName": "RedegjoerelseForurensetGrunn",
                "MaxAttachmentCount": 99,
                "MaxFileSize": 200,
                "MinAttachmentCount": 0
            },
            {
                "AllowedFileTypes": "pdf, doc, jpeg, jpg, xls, tif, tiff, ppt, png, jpeg, docx, sos, txt, xlsx, xml",
                "AttachmentTypeName": "RedegjoerelseAndreNaturMiljoeforhold",
                "MaxAttachmentCount": 99,
                "MaxFileSize": 200,
                "MinAttachmentCount": 0
            },
            {
                "AllowedFileTypes": "pdf, doc, jpeg, jpg, xls, tif, tiff, ppt, png, jpeg, docx, sos, txt, xlsx, xml",
                "AttachmentTypeName": "RedegjoerelseSkredOgFlom",
                "MaxAttachmentCount": 99,
                "MaxFileSize": 200,
                "MinAttachmentCount": 0
            },
            {
                "AllowedFileTypes": "pdf, jpeg, jpg, tif, tiff, png",
                "AttachmentTypeName": "TegningNyFasade",
                "MaxAttachmentCount": 99,
                "MaxFileSize": 30,
                "MinAttachmentCount": 0
            },
            {
                "AllowedFileTypes": "pdf, jpeg, jpg, tif, tiff, png",
                "AttachmentTypeName": "TegningNyPlan",
                "MaxAttachmentCount": 99,
                "MaxFileSize": 30,
                "MinAttachmentCount": 0
            },
            {
                "AllowedFileTypes": "pdf, jpeg, jpg, tif, tiff, png",
                "AttachmentTypeName": "TegningNyttSnitt",
                "MaxAttachmentCount": 99,
                "MaxFileSize": 30,
                "MinAttachmentCount": 0
            },
            {
                "AllowedFileTypes": "pdf, doc, jpeg, jpg, xls, tif, tiff, ppt, png, jpeg, docx, sos, txt, xlsx, xml",
                "AttachmentTypeName": "TegningEksisterendePlan",
                "MaxAttachmentCount": 99,
                "MaxFileSize": 200,
                "MinAttachmentCount": 0
            },
            {
                "AllowedFileTypes": "pdf, doc, jpeg, jpg, xls, tif, tiff, ppt, png, jpeg, docx, sos, txt, xlsx, xml",
                "AttachmentTypeName": "Nabovarsel",
                "MaxAttachmentCount": 99,
                "MaxFileSize": 30,
                "MinAttachmentCount": 0
            },
            {
                "AllowedFileTypes": "pdf, doc, jpeg, jpg, xls, tif, tiff, ppt, png, jpeg, docx, sos, txt, xlsx, xml",
                "AttachmentTypeName": "RekvisisjonAvOppmaalingsforretning",
                "MaxAttachmentCount": 99,
                "MaxFileSize": 200,
                "MinAttachmentCount": 0
            },
            {
                "AllowedFileTypes": "pdf, doc, jpeg, jpg, xls, tif, tiff, ppt, png, jpeg, docx, sos, txt, xlsx, xml",
                "AttachmentTypeName": "KommentarNabomerknader",
                "MaxAttachmentCount": 99,
                "MaxFileSize": 200,
                "MinAttachmentCount": 0
            },
            {
                "AllowedFileTypes": "pdf, doc, jpeg, jpg, xls, tif, tiff, ppt, png, jpeg, docx, sos, txt, xlsx, xml",
                "AttachmentTypeName": "AvklaringHoyspent",
                "MaxAttachmentCount": 10,
                "MaxFileSize": 200,
                "MinAttachmentCount": 0
            },
            {
                "AllowedFileTypes": "pdf, doc, jpeg, jpg, xls, tif, tiff, ppt, png, jpeg, docx, sos, txt, xlsx, xml",
                "AttachmentTypeName": "AvklaringVA",
                "MaxAttachmentCount": 10,
                "MaxFileSize": 200,
                "MinAttachmentCount": 0
            },
            {
                "AllowedFileTypes": "pdf, jpeg, jpg, tif, tiff, png",
                "AttachmentTypeName": "RedegjoerelseEstetikk",
                "MaxAttachmentCount": 99,
                "MaxFileSize": 30,
                "MinAttachmentCount": 0
            },
            {
                "AllowedFileTypes": "pdf, jpeg, jpg, tif, tiff, png",
                "AttachmentTypeName": "Folgebrev",
                "MaxAttachmentCount": 1,
                "MaxFileSize": 30,
                "MinAttachmentCount": 0
            },
            {
                "AllowedFileTypes": "pdf, jpeg, jpg, tif, tiff, png",
                "AttachmentTypeName": "Dispensasjonssoeknad",
                "MaxAttachmentCount": 99,
                "MaxFileSize": 30,
                "MinAttachmentCount": 0
            },
            {
                "AllowedFileTypes": "*.*",
                "AttachmentTypeName": "SamtykkePlassering",
                "MaxAttachmentCount": 10,
                "MaxFileSize": 200,
                "MinAttachmentCount": 0
            },
            {
                "AllowedFileTypes": "*.*",
                "AttachmentTypeName": "Utomhusplan",
                "MaxAttachmentCount": 10,
                "MaxFileSize": 200,
                "MinAttachmentCount": 0
            },
            {
                "AllowedFileTypes": "pdf, jpeg, jpg, tif, tiff, png",
                "AttachmentTypeName": "TegningEksisterendeSnitt",
                "MaxAttachmentCount": 99,
                "MaxFileSize": 30,
                "MinAttachmentCount": 0
            },
            {
                "AllowedFileTypes": "pdf, jpeg, jpg, tif, tiff, png",
                "AttachmentTypeName": "TegningEksisterendeFasade",
                "MaxAttachmentCount": 99,
                "MaxFileSize": 30,
                "MinAttachmentCount": 0
            }
        ],
        "Forms": [
            {
                "DataFormatID": "5786",
                "DataFormatVersion": 42725,
                "FormName": "Gjennomf\u00f8ringsplan",
                "FormType": "SubForm",
                "Schema": "https://altinn.no/api/metadata/formtask/4397/2/forms/5786/42725/xsd"
            },
            {
                "DataFormatID": "5797",
                "DataFormatVersion": 42813,
                "FormName": "Vedleggsopplysninger",
                "FormType": "SubForm",
                "Schema": "https://altinn.no/api/metadata/formtask/4397/2/forms/5797/42813/xsd"
            },
            {
                "DataFormatID": "5700",
                "DataFormatVersion": 42467,
                "FormName": "Erkl\u00e6ring om ansvarsrett",
                "FormType": "SubForm",
                "Schema": "https://altinn.no/api/metadata/formtask/4397/2/forms/5700/42467/xsd"
            },
            {
                "DataFormatID": "5625",
                "DataFormatVersion": 42144,
                "FormName": "Matrikkelopplysninger",
                "FormType": "SubForm",
                "Schema": "https://altinn.no/api/metadata/formtask/4397/2/forms/5625/42144/xsd"
            },
            {
                "DataFormatID": "5826",
                "DataFormatVersion": 42895,
                "FormName": "Gjenpart nabovarsel",
                "FormType": "SubForm",
                "Schema": "https://altinn.no/api/metadata/formtask/4397/2/forms/5826/42895/xsd"
            }
        ],
        "MainForm": {
            "DataFormatID": "5693",
            "DataFormatVersion": 42425,
            "FormName": "S\u00f8knad om rammetillatelse",
            "FormType": "MainForm",
            "Schema": "https://altinn.no/api/metadata/formtask/4397/2/forms/5693/42425/xsd"
        },
        "ServiceCode": "4397",
        "ServiceEditionCode": 2,
        "ServiceName": "S\u00f8knad om rammetillatelse",
        "Url": "https://altinn.no/api/metadata/formtask/4397/2",
        "ValidFrom": "2020-02-06T20:20:56.793",
        "ValidTo": "2047-10-12T00:57:00"
    },
    {
        "Attchments": [
            {
                "AllowedFileTypes": "ifc",
                "AttachmentTypeName": "ByggesaksBIM",
                "MaxAttachmentCount": 10,
                "MaxFileSize": 200,
                "MinAttachmentCount": 0
            },
            {
                "AllowedFileTypes": "*.*",
                "AttachmentTypeName": "UttalelseKulturminnemyndighet",
                "MaxAttachmentCount": 10,
                "MaxFileSize": 200,
                "MinAttachmentCount": 0
            },
            {
                "AllowedFileTypes": "*.*",
                "AttachmentTypeName": "SamtykkeArbeidstilsynet",
                "MaxAttachmentCount": 10,
                "MaxFileSize": 200,
                "MinAttachmentCount": 0
            },
            {
                "AllowedFileTypes": "*.*",
                "AttachmentTypeName": "AvkjoeringstillatelseVegmyndighet",
                "MaxAttachmentCount": 10,
                "MaxFileSize": 200,
                "MinAttachmentCount": 0
            },
            {
                "AllowedFileTypes": "*.*",
                "AttachmentTypeName": "RedegjoerelseUnntakTEK",
                "MaxAttachmentCount": 10,
                "MaxFileSize": 200,
                "MinAttachmentCount": 0
            },
            {
                "AllowedFileTypes": "*.*",
                "AttachmentTypeName": "UnderlagUtnytting",
                "MaxAttachmentCount": 10,
                "MaxFileSize": 200,
                "MinAttachmentCount": 0
            },
            {
                "AllowedFileTypes": "*.*",
                "AttachmentTypeName": "KvitteringNabovarsel",
                "MaxAttachmentCount": 99,
                "MaxFileSize": 200,
                "MinAttachmentCount": 0
            },
            {
                "AllowedFileTypes": "pdf, doc, jpeg, jpg, xls, tif, tiff, ppt, png, jpeg, docx, sos, txt, xlsx, xml",
                "AttachmentTypeName": "ErklaeringAnsvarsrett",
                "MaxAttachmentCount": 99,
                "MaxFileSize": 200,
                "MinAttachmentCount": 0
            },
            {
                "AllowedFileTypes": "pdf, doc, jpeg, jpg, xls, tif, tiff, ppt, png, jpeg, docx, sos, txt, xlsx, xml",
                "AttachmentTypeName": "Nabomerknader",
                "MaxAttachmentCount": 99,
                "MaxFileSize": 200,
                "MinAttachmentCount": 0
            },
            {
                "AllowedFileTypes": "pdf, doc, jpeg, jpg, xls, tif, tiff, ppt, png, jpeg, docx, sos, txt, xlsx, xml",
                "AttachmentTypeName": "Avkjoerselsplan",
                "MaxAttachmentCount": 99,
                "MaxFileSize": 200,
                "MinAttachmentCount": 0
            },
            {
                "AllowedFileTypes": "pdf, jpeg, jpg, tif, tiff, png",
                "AttachmentTypeName": "Situasjonsplan",
                "MaxAttachmentCount": 99,
                "MaxFileSize": 30,
                "MinAttachmentCount": 0
            },
            {
                "AllowedFileTypes": "pdf, doc, jpeg, jpg, xls, tif, tiff, ppt, png, jpeg, docx, sos, txt, xlsx, xml",
                "AttachmentTypeName": "RedegjoerelseGrunnforhold",
                "MaxAttachmentCount": 99,
                "MaxFileSize": 200,
                "MinAttachmentCount": 0
            },
            {
                "AllowedFileTypes": "pdf, doc, jpeg, jpg, xls, tif, tiff, ppt, png, jpeg, docx, sos, txt, xlsx, xml",
                "AttachmentTypeName": "Gjennomfoeringsplan",
                "MaxAttachmentCount": 99,
                "MaxFileSize": 200,
                "MinAttachmentCount": 0
            },
            {
                "AllowedFileTypes": "pdf, doc, jpeg, jpg, xls, tif, tiff, ppt, png, jpeg, docx, sos, txt, xlsx, xml",
                "AttachmentTypeName": "BoligspesifikasjonMatrikkel",
                "MaxAttachmentCount": 99,
                "MaxFileSize": 200,
                "MinAttachmentCount": 0
            },
            {
                "AllowedFileTypes": "pdf, doc, jpeg, jpg, xls, tif, tiff, ppt, png, jpeg, docx, sos, txt, xlsx, xml",
                "AttachmentTypeName": "UttalelseVedtakAnnenOffentligMyndighet",
                "MaxAttachmentCount": 99,
                "MaxFileSize": 200,
                "MinAttachmentCount": 0
            },
            {
                "AllowedFileTypes": "pdf, jpeg, jpg, tif, tiff, png",
                "AttachmentTypeName": "Annet",
                "MaxAttachmentCount": 99,
                "MaxFileSize": 30,
                "MinAttachmentCount": 0
            },
            {
                "AllowedFileTypes": "pdf, doc, jpeg, jpg, xls, tif, tiff, ppt, png, jpeg, docx, sos, txt, xlsx, xml",
                "AttachmentTypeName": "Kart",
                "MaxAttachmentCount": 99,
                "MaxFileSize": 200,
                "MinAttachmentCount": 0
            },
            {
                "AllowedFileTypes": "pdf, doc, jpeg, jpg, xls, tif, tiff, ppt, png, jpeg, docx, sos, txt, xlsx, xml",
                "AttachmentTypeName": "RedegjoerelseForurensetGrunn",
                "MaxAttachmentCount": 99,
                "MaxFileSize": 200,
                "MinAttachmentCount": 0
            },
            {
                "AllowedFileTypes": "pdf, doc, jpeg, jpg, xls, tif, tiff, ppt, png, jpeg, docx, sos, txt, xlsx, xml",
                "AttachmentTypeName": "RedegjoerelseAndreNaturMiljoeforhold",
                "MaxAttachmentCount": 99,
                "MaxFileSize": 200,
                "MinAttachmentCount": 0
            },
            {
                "AllowedFileTypes": "pdf, doc, jpeg, jpg, xls, tif, tiff, ppt, png, jpeg, docx, sos, txt, xlsx, xml",
                "AttachmentTypeName": "RedegjoerelseSkredOgFlom",
                "MaxAttachmentCount": 99,
                "MaxFileSize": 200,
                "MinAttachmentCount": 0
            },
            {
                "AllowedFileTypes": "pdf, jpeg, jpg, tif, tiff, png",
                "AttachmentTypeName": "TegningNyFasade",
                "MaxAttachmentCount": 99,
                "MaxFileSize": 30,
                "MinAttachmentCount": 0
            },
            {
                "AllowedFileTypes": "pdf, jpeg, jpg, tif, tiff, png",
                "AttachmentTypeName": "TegningNyPlan",
                "MaxAttachmentCount": 99,
                "MaxFileSize": 30,
                "MinAttachmentCount": 0
            },
            {
                "AllowedFileTypes": "pdf, jpeg, jpg, tif, tiff, png",
                "AttachmentTypeName": "TegningNyttSnitt",
                "MaxAttachmentCount": 99,
                "MaxFileSize": 30,
                "MinAttachmentCount": 0
            },
            {
                "AllowedFileTypes": "pdf, doc, jpeg, jpg, xls, tif, tiff, ppt, png, jpeg, docx, sos, txt, xlsx, xml",
                "AttachmentTypeName": "TegningEksisterendePlan",
                "MaxAttachmentCount": 99,
                "MaxFileSize": 200,
                "MinAttachmentCount": 0
            },
            {
                "AllowedFileTypes": "pdf, doc, jpeg, jpg, xls, tif, tiff, ppt, png, jpeg, docx, sos, txt, xlsx, xml",
                "AttachmentTypeName": "Nabovarsel",
                "MaxAttachmentCount": 99,
                "MaxFileSize": 30,
                "MinAttachmentCount": 0
            },
            {
                "AllowedFileTypes": "pdf, doc, jpeg, jpg, xls, tif, tiff, ppt, png, jpeg, docx, sos, txt, xlsx, xml",
                "AttachmentTypeName": "RekvisisjonAvOppmaalingsforretning",
                "MaxAttachmentCount": 99,
                "MaxFileSize": 200,
                "MinAttachmentCount": 0
            },
            {
                "AllowedFileTypes": "pdf, doc, jpeg, jpg, xls, tif, tiff, ppt, png, jpeg, docx, sos, txt, xlsx, xml",
                "AttachmentTypeName": "KommentarNabomerknader",
                "MaxAttachmentCount": 99,
                "MaxFileSize": 200,
                "MinAttachmentCount": 0
            },
            {
                "AllowedFileTypes": "pdf, doc, jpeg, jpg, xls, tif, tiff, ppt, png, jpeg, docx, sos, txt, xlsx, xml",
                "AttachmentTypeName": "AvklaringHoyspent",
                "MaxAttachmentCount": 10,
                "MaxFileSize": 200,
                "MinAttachmentCount": 0
            },
            {
                "AllowedFileTypes": "pdf, doc, jpeg, jpg, xls, tif, tiff, ppt, png, jpeg, docx, sos, txt, xlsx, xml",
                "AttachmentTypeName": "AvklaringVA",
                "MaxAttachmentCount": 10,
                "MaxFileSize": 200,
                "MinAttachmentCount": 0
            },
            {
                "AllowedFileTypes": "pdf, jpeg, jpg, tif, tiff, png",
                "AttachmentTypeName": "RedegjoerelseEstetikk",
                "MaxAttachmentCount": 99,
                "MaxFileSize": 30,
                "MinAttachmentCount": 0
            },
            {
                "AllowedFileTypes": "pdf, jpeg, jpg, tif, tiff, png",
                "AttachmentTypeName": "Folgebrev",
                "MaxAttachmentCount": 1,
                "MaxFileSize": 30,
                "MinAttachmentCount": 0
            },
            {
                "AllowedFileTypes": "pdf, jpeg, jpg, tif, tiff, png",
                "AttachmentTypeName": "Dispensasjonssoeknad",
                "MaxAttachmentCount": 99,
                "MaxFileSize": 30,
                "MinAttachmentCount": 0
            },
            {
                "AllowedFileTypes": "*.*",
                "AttachmentTypeName": "SamtykkePlassering",
                "MaxAttachmentCount": 10,
                "MaxFileSize": 200,
                "MinAttachmentCount": 0
            },
            {
                "AllowedFileTypes": "*.*",
                "AttachmentTypeName": "Utomhusplan",
                "MaxAttachmentCount": 10,
                "MaxFileSize": 200,
                "MinAttachmentCount": 0
            },
            {
                "AllowedFileTypes": "pdf, jpeg, jpg, tif, tiff, png",
                "AttachmentTypeName": "TegningEksisterendeSnitt",
                "MaxAttachmentCount": 99,
                "MaxFileSize": 30,
                "MinAttachmentCount": 0
            },
            {
                "AllowedFileTypes": "pdf, jpeg, jpg, tif, tiff, png",
                "AttachmentTypeName": "TegningEksisterendeFasade",
                "MaxAttachmentCount": 99,
                "MaxFileSize": 30,
                "MinAttachmentCount": 0
            }
        ],
        "Forms": [
            {
                "DataFormatID": "5786",
                "DataFormatVersion": 42725,
                "FormName": "Gjennomf\u00f8ringsplan",
                "FormType": "SubForm",
                "Schema": "https://altinn.no/api/metadata/formtask/4528/2/forms/5786/42725/xsd"
            },
            {
                "DataFormatID": "5797",
                "DataFormatVersion": 42813,
                "FormName": "Vedleggsopplysninger",
                "FormType": "SubForm",
                "Schema": "https://altinn.no/api/metadata/formtask/4528/2/forms/5797/42813/xsd"
            },
            {
                "DataFormatID": "5700",
                "DataFormatVersion": 42467,
                "FormName": "Erkl\u00e6ring om ansvarsrett",
                "FormType": "SubForm",
                "Schema": "https://altinn.no/api/metadata/formtask/4528/2/forms/5700/42467/xsd"
            },
            {
                "DataFormatID": "5625",
                "DataFormatVersion": 42144,
                "FormName": "Matrikkelopplysninger",
                "FormType": "SubForm",
                "Schema": "https://altinn.no/api/metadata/formtask/4528/2/forms/5625/42144/xsd"
            },
            {
                "DataFormatID": "5826",
                "DataFormatVersion": 42895,
                "FormName": "Gjenpart nabovarsel",
                "FormType": "SubForm",
                "Schema": "https://altinn.no/api/metadata/formtask/4528/2/forms/5826/42895/xsd"
            }
        ],
        "MainForm": {
            "DataFormatID": "5694",
            "DataFormatVersion": 42434,
            "FormName": "S\u00f8knad om tillatelse i ett trinn",
            "FormType": "MainForm",
            "Schema": "https://altinn.no/api/metadata/formtask/4528/2/forms/5694/42434/xsd"
        },
        "ServiceCode": "4528",
        "ServiceEditionCode": 2,
        "ServiceName": "S\u00f8knad om tillatelse i ett trinn",
        "Url": "https://altinn.no/api/metadata/formtask/4528/2",
        "ValidFrom": "2020-01-27T00:00:00",
        "ValidTo": "2047-10-16T10:56:00"
    },
    {
        "Attchments": [
            {
                "AllowedFileTypes": "*.*",
                "AttachmentTypeName": "AvkjoeringstillatelseVegmyndighet",
                "MaxAttachmentCount": 10,
                "MaxFileSize": 200,
                "MinAttachmentCount": 0
            },
            {
                "AllowedFileTypes": "*.*",
                "AttachmentTypeName": "KvitteringNabovarsel",
                "MaxAttachmentCount": 99,
                "MaxFileSize": 200,
                "MinAttachmentCount": 0
            },
            {
                "AllowedFileTypes": "pdf, doc, jpeg, jpg, xls, tif, tiff, ppt, png, jpeg, docx, sos, txt, xlsx, xml",
                "AttachmentTypeName": "ErklaeringAnsvarsrett",
                "MaxAttachmentCount": 99,
                "MaxFileSize": 200,
                "MinAttachmentCount": 0
            },
            {
                "AllowedFileTypes": "pdf, doc, jpeg, jpg, xls, tif, tiff, ppt, png, jpeg, docx, sos, txt, xlsx, xml",
                "AttachmentTypeName": "Nabomerknader",
                "MaxAttachmentCount": 99,
                "MaxFileSize": 200,
                "MinAttachmentCount": 0
            },
            {
                "AllowedFileTypes": "pdf, doc, jpeg, jpg, xls, tif, tiff, ppt, png, jpeg, docx, sos, txt, xlsx, xml",
                "AttachmentTypeName": "Avkjoerselsplan",
                "MaxAttachmentCount": 99,
                "MaxFileSize": 200,
                "MinAttachmentCount": 0
            },
            {
                "AllowedFileTypes": "pdf, jpeg, jpg, tif, tiff, png",
                "AttachmentTypeName": "Situasjonsplan",
                "MaxAttachmentCount": 99,
                "MaxFileSize": 30,
                "MinAttachmentCount": 0
            },
            {
                "AllowedFileTypes": "pdf, doc, jpeg, jpg, xls, tif, tiff, ppt, png, jpeg, docx, sos, txt, xlsx, xml",
                "AttachmentTypeName": "UttalelseVedtakAnnenOffentligMyndighet",
                "MaxAttachmentCount": 99,
                "MaxFileSize": 200,
                "MinAttachmentCount": 0
            },
            {
                "AllowedFileTypes": "pdf, jpeg, jpg, tif, tiff, png",
                "AttachmentTypeName": "Annet",
                "MaxAttachmentCount": 99,
                "MaxFileSize": 30,
                "MinAttachmentCount": 0
            },
            {
                "AllowedFileTypes": "pdf, doc, jpeg, jpg, xls, tif, tiff, ppt, png, jpeg, docx, sos, txt, xlsx, xml",
                "AttachmentTypeName": "Kart",
                "MaxAttachmentCount": 99,
                "MaxFileSize": 200,
                "MinAttachmentCount": 0
            },
            {
                "AllowedFileTypes": "pdf, doc, jpeg, jpg, xls, tif, tiff, ppt, png, jpeg, docx, sos, txt, xlsx, xml",
                "AttachmentTypeName": "RedegjoerelseAndreNaturMiljoeforhold",
                "MaxAttachmentCount": 99,
                "MaxFileSize": 200,
                "MinAttachmentCount": 0
            },
            {
                "AllowedFileTypes": "pdf, doc, jpeg, jpg, xls, tif, tiff, ppt, png, jpeg, docx, sos, txt, xlsx, xml",
                "AttachmentTypeName": "RedegjoerelseSkredOgFlom",
                "MaxAttachmentCount": 99,
                "MaxFileSize": 200,
                "MinAttachmentCount": 0
            },
            {
                "AllowedFileTypes": "pdf, jpeg, jpg, tif, tiff, png",
                "AttachmentTypeName": "TegningNyFasade",
                "MaxAttachmentCount": 99,
                "MaxFileSize": 30,
                "MinAttachmentCount": 0
            },
            {
                "AllowedFileTypes": "pdf, jpeg, jpg, tif, tiff, png",
                "AttachmentTypeName": "TegningNyPlan",
                "MaxAttachmentCount": 99,
                "MaxFileSize": 30,
                "MinAttachmentCount": 0
            },
            {
                "AllowedFileTypes": "pdf, jpeg, jpg, tif, tiff, png",
                "AttachmentTypeName": "TegningNyttSnitt",
                "MaxAttachmentCount": 99,
                "MaxFileSize": 30,
                "MinAttachmentCount": 0
            },
            {
                "AllowedFileTypes": "pdf, doc, jpeg, jpg, xls, tif, tiff, ppt, png, jpeg, docx, sos, txt, xlsx, xml",
                "AttachmentTypeName": "TegningEksisterendePlan",
                "MaxAttachmentCount": 99,
                "MaxFileSize": 200,
                "MinAttachmentCount": 0
            },
            {
                "AllowedFileTypes": "pdf, doc, jpeg, jpg, xls, tif, tiff, ppt, png, jpeg, docx, sos, txt, xlsx, xml",
                "AttachmentTypeName": "Nabovarsel",
                "MaxAttachmentCount": 99,
                "MaxFileSize": 30,
                "MinAttachmentCount": 0
            },
            {
                "AllowedFileTypes": "pdf, doc, jpeg, jpg, xls, tif, tiff, ppt, png, jpeg, docx, sos, txt, xlsx, xml",
                "AttachmentTypeName": "RekvisisjonAvOppmaalingsforretning",
                "MaxAttachmentCount": 99,
                "MaxFileSize": 200,
                "MinAttachmentCount": 0
            },
            {
                "AllowedFileTypes": "pdf, doc, jpeg, jpg, xls, tif, tiff, ppt, png, jpeg, docx, sos, txt, xlsx, xml",
                "AttachmentTypeName": "KommentarNabomerknader",
                "MaxAttachmentCount": 99,
                "MaxFileSize": 200,
                "MinAttachmentCount": 0
            },
            {
                "AllowedFileTypes": "pdf, doc, jpeg, jpg, xls, tif, tiff, ppt, png, jpeg, docx, sos, txt, xlsx, xml",
                "AttachmentTypeName": "AvklaringHoyspent",
                "MaxAttachmentCount": 10,
                "MaxFileSize": 200,
                "MinAttachmentCount": 0
            },
            {
                "AllowedFileTypes": "pdf, doc, jpeg, jpg, xls, tif, tiff, ppt, png, jpeg, docx, sos, txt, xlsx, xml",
                "AttachmentTypeName": "AvklaringVA",
                "MaxAttachmentCount": 10,
                "MaxFileSize": 200,
                "MinAttachmentCount": 0
            },
            {
                "AllowedFileTypes": "pdf, jpeg, jpg, tif, tiff, png",
                "AttachmentTypeName": "Dispensasjonssoeknad",
                "MaxAttachmentCount": 99,
                "MaxFileSize": 30,
                "MinAttachmentCount": 0
            },
            {
                "AllowedFileTypes": "*.*",
                "AttachmentTypeName": "SamtykkePlassering",
                "MaxAttachmentCount": 10,
                "MaxFileSize": 200,
                "MinAttachmentCount": 0
            },
            {
                "AllowedFileTypes": "*.*",
                "AttachmentTypeName": "Utomhusplan",
                "MaxAttachmentCount": 10,
                "MaxFileSize": 200,
                "MinAttachmentCount": 0
            },
            {
                "AllowedFileTypes": "pdf, jpeg, jpg, tif, tiff, png",
                "AttachmentTypeName": "TegningEksisterendeSnitt",
                "MaxAttachmentCount": 99,
                "MaxFileSize": 30,
                "MinAttachmentCount": 0
            },
            {
                "AllowedFileTypes": "pdf, jpeg, jpg, tif, tiff, png",
                "AttachmentTypeName": "TegningEksisterendeFasade",
                "MaxAttachmentCount": 99,
                "MaxFileSize": 30,
                "MinAttachmentCount": 0
            }
        ],
        "Forms": [
            {
                "DataFormatID": "5797",
                "DataFormatVersion": 42813,
                "FormName": "Vedleggsopplysninger",
                "FormType": "SubForm",
                "Schema": "https://altinn.no/api/metadata/formtask/4373/2/forms/5797/42813/xsd"
            },
            {
                "DataFormatID": "5826",
                "DataFormatVersion": 42895,
                "FormName": "Gjenpart nabovarsel",
                "FormType": "SubForm",
                "Schema": "https://altinn.no/api/metadata/formtask/4373/2/forms/5826/42895/xsd"
            },
            {
                "DataFormatID": "5625",
                "DataFormatVersion": 42144,
                "FormName": "Matrikkelopplysninger",
                "FormType": "SubForm",
                "Schema": "https://altinn.no/api/metadata/formtask/4373/2/forms/5625/42144/xsd"
            }
        ],
        "MainForm": {
            "DataFormatID": "5853",
            "DataFormatVersion": 43137,
            "FormName": "S\u00f8knad om tiltak uten ansvarsrett",
            "FormType": "MainForm",
            "Schema": "https://altinn.no/api/metadata/formtask/4373/2/forms/5853/43137/xsd"
        },
        "ServiceCode": "4373",
        "ServiceEditionCode": 2,
        "ServiceName": "S\u00f8knad om tiltak uten ansvarsrett",
        "Url": "https://altinn.no/api/metadata/formtask/4373/2",
        "ValidFrom": "2020-02-07T10:45:29.443",
        "ValidTo": "2046-02-02T15:41:00"
    }
]