[
    {
        "Attchments": [
            {
                "AllowedFileTypes": "pdf, doc, docx, jpg, png, xls, xlsx, rtf",
                "AttachmentTypeName": "Annet",
                "MaxAttachmentCount": 10,
                "MaxFileSize": 20,
                "MinAttachmentCount": 0
            },
            {
                "AllowedFileTypes": "pdf, jpeg, jpg, tif, tiff, png",
                "AttachmentTypeName": "Situasjonsplan",
                "MaxAttachmentCount": 99,
                "MaxFileSize": 30,
                "MinAttachmentCount": 0
            },
            {
                "AllowedFileTypes": "pdf, jpeg, jpg, tif, tiff, png",
                "AttachmentTypeName": "TegningNyttSnitt",
                "MaxAttachmentCount": 99,
                "MaxFileSize": 30,
                "MinAttachmentCount": 0
            },
            {
                "AllowedFileTypes": "pdf, jpeg, jpg, tif, tiff, png",
                "AttachmentTypeName": "TegningNyPlan",
                "MaxAttachmentCount": 99,
                "MaxFileSize": 30,
                "MinAttachmentCount": 0
            },
            {
                "AllowedFileTypes": "pdf, jpeg, jpg, tif, tiff, png",
                "AttachmentTypeName": "TegningNyFasade",
                "MaxAttachmentCount": 99,
                "MaxFileSize": 30,
                "MinAttachmentCount": 0
            },
            {
                "AllowedFileTypes": "pdf, jpeg, jpg, tif, tiff, png",
                "AttachmentTypeName": "Dispensasjonssoeknad",
                "MaxAttachmentCount": 99,
                "MaxFileSize": 30,
                "MinAttachmentCount": 0
            },
            {
                "AllowedFileTypes": "pdf, doc, docx, jpeg, jpg, xls, xlsx, tif, tiff, ppt, png, sos, txt, xml",
                "AttachmentTypeName": "Avkjoerselsplan",
                "MaxAttachmentCount": 99,
                "MaxFileSize": 200,
                "MinAttachmentCount": 0
            },
            {
                "AllowedFileTypes": "pdf, doc, docx, jpeg, jpg, xls, xlsx, tif, tiff, ppt, png, sos, txt, xml",
                "AttachmentTypeName": "Kart",
                "MaxAttachmentCount": 99,
                "MaxFileSize": 200,
                "MinAttachmentCount": 0
            },
            {
                "AllowedFileTypes": "pdf, doc, docx, jpeg, jpg, xls, xlsx, tif, tiff, ppt, png, sos, txt, xml",
                "AttachmentTypeName": "UttalelseVedtakAnnenOffentligMyndighet",
                "MaxAttachmentCount": 99,
                "MaxFileSize": 200,
                "MinAttachmentCount": 0
            },
            {
                "AllowedFileTypes": "pdf, jpeg, jpg, tif, tiff, png",
                "AttachmentTypeName": "TegningEksisterendeFasade",
                "MaxAttachmentCount": 99,
                "MaxFileSize": 30,
                "MinAttachmentCount": 0
            },
            {
                "AllowedFileTypes": "pdf, doc, docx, jpeg, jpg, xls, xlsx, tif, tiff, ppt, png, sos, txt, xml",
                "AttachmentTypeName": "TegningEksisterendePlan",
                "MaxAttachmentCount": 99,
                "MaxFileSize": 200,
                "MinAttachmentCount": 0
            },
            {
                "AllowedFileTypes": "pdf",
                "AttachmentTypeName": "Soknad",
                "MaxAttachmentCount": 1,
                "MaxFileSize": 200,
                "MinAttachmentCount": 0
            },
            {
                "AllowedFileTypes": "pdf, doc, jpeg, jpg, png, docx",
                "AttachmentTypeName": "Arbeidsmiljoutvalg",
                "MaxAttachmentCount": 10,
                "MaxFileSize": 200,
                "MinAttachmentCount": 0
            },
            {
                "AllowedFileTypes": "pdf, doc, jpeg, jpg, png, docx",
                "AttachmentTypeName": "ArbeidstakersRepresentant",
                "MaxAttachmentCount": 10,
                "MaxFileSize": 200,
                "MinAttachmentCount": 0
            },
            {
                "AllowedFileTypes": "pdf, doc, jpeg, jpg, png, docx",
                "AttachmentTypeName": "Bedriftshelsetjeneste",
                "MaxAttachmentCount": 10,
                "MaxFileSize": 200,
                "MinAttachmentCount": 0
            },
            {
                "AllowedFileTypes": "pdf, doc, jpeg, jpg, png, docx",
                "AttachmentTypeName": "TiltakshaverSignatur",
                "MaxAttachmentCount": 1,
                "MaxFileSize": 200,
                "MinAttachmentCount": 0
            },
            {
                "AllowedFileTypes": "pdf, doc, jpeg, jpg, png, docx",
                "AttachmentTypeName": "Verneombud",
                "MaxAttachmentCount": 10,
                "MaxFileSize": 200,
                "MinAttachmentCount": 0
            },
            {
                "AllowedFileTypes": "pdf, doc, jpeg, jpg, png, docx",
                "AttachmentTypeName": "LeietakerArbeidsgiver",
                "MaxAttachmentCount": 10,
                "MaxFileSize": 200,
                "MinAttachmentCount": 0
            },
            {
                "AllowedFileTypes": "pdf, doc, docx, jpeg, jpg, xls, xlsx, tif, tiff, ppt, png, sos, txt, xml",
                "AttachmentTypeName": "BeskrivelseTypeArbeidProsess",
                "MaxAttachmentCount": 99,
                "MaxFileSize": 200,
                "MinAttachmentCount": 0
            },
            {
                "AllowedFileTypes": "pdf, doc, docx, jpeg, jpg, xls, xlsx, tif, tiff, ppt, png, sos, txt, xml",
                "AttachmentTypeName": "Arbeidsmiljofaktorer",
                "MaxAttachmentCount": 99,
                "MaxFileSize": 200,
                "MinAttachmentCount": 0
            },
            {
                "AllowedFileTypes": "pdf, doc, docx, jpeg, jpg, xls, xlsx, tif, tiff, ppt, png, sos, txt, xml",
                "AttachmentTypeName": "ArbeidsgiversMedvirkning",
                "MaxAttachmentCount": 99,
                "MaxFileSize": 200,
                "MinAttachmentCount": 0
            },
            {
                "AllowedFileTypes": "pdf, doc, docx, jpeg, jpg, xls, xlsx, tif, tiff, ppt, png, sos, txt, xml",
                "AttachmentTypeName": "ForUtleiebygg",
                "MaxAttachmentCount": 99,
                "MaxFileSize": 200,
                "MinAttachmentCount": 0
            },
            {
                "AllowedFileTypes": "pdf, doc, docx, jpeg, jpg, xls, xlsx, tif, tiff, ppt, png, sos, txt, xml",
                "AttachmentTypeName": "BistandFraBHT",
                "MaxAttachmentCount": 99,
                "MaxFileSize": 200,
                "MinAttachmentCount": 0
            },
            {
                "AllowedFileTypes": "pdf, doc, docx, jpeg, jpg, xls, xlsx, tif, tiff, ppt, png, sos, txt, xml",
                "AttachmentTypeName": "Ventilasjon",
                "MaxAttachmentCount": 99,
                "MaxFileSize": 200,
                "MinAttachmentCount": 0
            },
            {
                "AllowedFileTypes": "pdf, doc, docx, jpeg, jpg, xls, xlsx, tif, tiff, ppt, png, sos, txt, xml",
                "AttachmentTypeName": "TegningEksisterendeSnitt",
                "MaxAttachmentCount": 99,
                "MaxFileSize": 200,
                "MinAttachmentCount": 0
            },
            {
                "AllowedFileTypes": "pdf, doc, docx, jpeg, jpg, xls, xlsx, tif, tiff, ppt, png, sos, txt, xml",
                "AttachmentTypeName": "AnsattesMedvirkning",
                "MaxAttachmentCount": 99,
                "MaxFileSize": 200,
                "MinAttachmentCount": 0
            }
        ],
        "Forms": [],
        "MainForm": {
            "DataFormatID": "6821",
            "DataFormatVersion": 45957,
            "FormName": "S\u00f8knad om arbeidstilsynets samtykke",
            "FormType": "MainForm",
            "Schema": "https://altinn.no/api/metadata/formtask/5689/2/forms/6821/45957/xsd"
        },
        "ServiceCode": "5689",
        "ServiceEditionCode": 2,
        "ServiceName": "S\u00f8knad om Arbeidstilsynets samtykke",
        "Url": "https://altinn.no/api/metadata/formtask/5689/2",
        "ValidFrom": "2022-05-30T15:23:23.597",
        "ValidTo": "2051-02-10T00:41:00"
    }
]