[
    {
        "Attchments": [],
        "Forms": [],
        "MainForm": {
            "DataFormatID": "5506",
            "DataFormatVersion": 41798,
            "FormName": "Distribusjonstjeneste for erkl\u00e6ring av ansvarsrett",
            "FormType": "MainForm",
            "Schema": "https://altinn.no/api/metadata/formtask/4762/1/forms/5506/41798/xsd"
        },
        "ServiceCode": "4762",
        "ServiceEditionCode": 1,
        "ServiceName": "Distribusjonstjeneste for erkl\u00e6ring av ansvarsrett",
        "Url": "https://altinn.no/api/metadata/formtask/4762/1",
        "ValidFrom": "2018-05-11T11:08:06.96",
        "ValidTo": "2047-01-26T00:30:00"
    },
    {
        "Attchments": [],
        "Forms": [],
        "MainForm": {
            "DataFormatID": "5699",
            "DataFormatVersion": 42465,
            "FormName": "Erkl\u00e6ring om ansvarsrett",
            "FormType": "MainForm",
            "Schema": "https://altinn.no/api/metadata/formtask/4419/3/forms/5699/42465/xsd"
        },
        "ServiceCode": "4419",
        "ServiceEditionCode": 3,
        "ServiceName": "Erkl\u00e6ring om Ansvarsrett",
        "Url": "https://altinn.no/api/metadata/formtask/4419/3",
        "ValidFrom": "2018-05-08T09:47:20.547",
        "ValidTo": "2047-10-24T14:36:00"
    },
    {
        "Attchments": [],
        "Forms": [],
        "MainForm": {
            "DataFormatID": "5700",
            "DataFormatVersion": 42467,
            "FormName": "Erkl\u00e6ring om ansvarsrett",
            "FormType": "MainForm",
            "Schema": "https://altinn.no/api/metadata/formtask/4965/2/forms/5700/42467/xsd"
        },
        "ServiceCode": "4965",
        "ServiceEditionCode": 2,
        "ServiceName": "Erkl\u00e6ring om ansvarsrett - direkte skjemaoppretting",
        "Url": "https://altinn.no/api/metadata/formtask/4965/2",
        "ValidFrom": "2018-11-05T12:22:53.537",
        "ValidTo": "2047-10-25T11:22:00"
    },
    {
        "Attchments": [
            {
                "AllowedFileTypes": "pdf, doc, jpeg, jpg, xls, tif, tiff, ppt, png, jpeg, docx, sos, txt, xlsx, xml",
                "AttachmentTypeName": "ErklaeringAnsvarsrett",
                "MaxAttachmentCount": 99,
                "MaxFileSize": 200,
                "MinAttachmentCount": 0
            }
        ],
        "Forms": [],
        "MainForm": {
            "DataFormatID": "5705",
            "DataFormatVersion": 42560,
            "FormName": "Gjennomf\u00f8ringsplan",
            "FormType": "MainForm",
            "Schema": "https://altinn.no/api/metadata/formtask/4398/4/forms/5705/42560/xsd"
        },
        "ServiceCode": "4398",
        "ServiceEditionCode": 4,
        "ServiceName": "Gjennomf\u00f8ringsplan",
        "Url": "https://altinn.no/api/metadata/formtask/4398/4",
        "ValidFrom": "2018-05-11T11:06:18.447",
        "ValidTo": "2047-11-22T00:29:00"
    },
    {
        "Attchments": [
            {
                "AllowedFileTypes": "pdf, jpeg, jpg, tif, tiff, png",
                "AttachmentTypeName": "Situasjonsplan",
                "MaxAttachmentCount": 99,
                "MaxFileSize": 30,
                "MinAttachmentCount": 0
            },
            {
                "AllowedFileTypes": "pdf, jpeg, jpg, tif, tiff, png",
                "AttachmentTypeName": "Annet",
                "MaxAttachmentCount": 99,
                "MaxFileSize": 30,
                "MinAttachmentCount": 0
            },
            {
                "AllowedFileTypes": "pdf, jpeg, jpg, tif, tiff, png",
                "AttachmentTypeName": "TegningNyFasade",
                "MaxAttachmentCount": 99,
                "MaxFileSize": 30,
                "MinAttachmentCount": 0
            },
            {
                "AllowedFileTypes": "pdf, jpeg, jpg, tif, tiff, png",
                "AttachmentTypeName": "TegningNyPlan",
                "MaxAttachmentCount": 99,
                "MaxFileSize": 30,
                "MinAttachmentCount": 0
            },
            {
                "AllowedFileTypes": "pdf, jpeg, jpg, tif, tiff, png",
                "AttachmentTypeName": "TegningNyttSnitt",
                "MaxAttachmentCount": 99,
                "MaxFileSize": 30,
                "MinAttachmentCount": 0
            },
            {
                "AllowedFileTypes": "pdf, jpeg, jpg, tif, tiff, png",
                "AttachmentTypeName": "RedegjoerelseEstetikk",
                "MaxAttachmentCount": 99,
                "MaxFileSize": 30,
                "MinAttachmentCount": 0
            },
            {
                "AllowedFileTypes": "pdf, jpeg, jpg, tif, tiff, png",
                "AttachmentTypeName": "Folgebrev",
                "MaxAttachmentCount": 1,
                "MaxFileSize": 30,
                "MinAttachmentCount": 0
            },
            {
                "AllowedFileTypes": "pdf, jpeg, jpg, tif, tiff, png",
                "AttachmentTypeName": "Dispensasjonssoeknad",
                "MaxAttachmentCount": 99,
                "MaxFileSize": 30,
                "MinAttachmentCount": 0
            }
        ],
        "Forms": [],
        "MainForm": {
            "DataFormatID": "5791",
            "DataFormatVersion": 42760,
            "FormName": "Distribusjon av nabovarsel",
            "FormType": "MainForm",
            "Schema": "https://altinn.no/api/metadata/formtask/4655/3/forms/5791/42760/xsd"
        },
        "ServiceCode": "4655",
        "ServiceEditionCode": 3,
        "ServiceName": "Nabovarsel",
        "Url": "https://altinn.no/api/metadata/formtask/4655/3",
        "ValidFrom": "2019-02-06T18:00:00",
        "ValidTo": "2047-10-30T15:55:00"
    },
    {
        "Attchments": [
            {
                "AllowedFileTypes": "pdf, doc, jpeg, jpg, xls, tif, tiff, ppt, png, jpeg, docx, sos, txt, xlsx, xml",
                "AttachmentTypeName": "Nabomerknader",
                "MaxAttachmentCount": 99,
                "MaxFileSize": 200,
                "MinAttachmentCount": 0
            }
        ],
        "Forms": [],
        "MainForm": {
            "DataFormatID": "5703",
            "DataFormatVersion": 42543,
            "FormName": "Svar p\u00e5 nabovarsel",
            "FormType": "MainForm",
            "Schema": "https://altinn.no/api/metadata/formtask/4699/2/forms/5703/42543/xsd"
        },
        "ServiceCode": "4699",
        "ServiceEditionCode": 2,
        "ServiceName": "Svar p\u00e5 nabovarsel",
        "Url": "https://altinn.no/api/metadata/formtask/4699/2",
        "ValidFrom": "2018-08-22T12:00:00",
        "ValidTo": "2047-11-17T00:57:00"
    },
    {
        "Attchments": [
            {
                "AllowedFileTypes": "pdf, jpeg, jpg, tif, tiff, png",
                "AttachmentTypeName": "Annet",
                "MaxAttachmentCount": 99,
                "MaxFileSize": 30,
                "MinAttachmentCount": 0
            },
            {
                "AllowedFileTypes": "pdf, jpeg, jpg, tif, tiff, png",
                "AttachmentTypeName": "TegningNyFasade",
                "MaxAttachmentCount": 99,
                "MaxFileSize": 30,
                "MinAttachmentCount": 0
            },
            {
                "AllowedFileTypes": "pdf, jpeg, jpg, tif, tiff, png",
                "AttachmentTypeName": "TegningNyPlan",
                "MaxAttachmentCount": 99,
                "MaxFileSize": 30,
                "MinAttachmentCount": 0
            },
            {
                "AllowedFileTypes": "pdf, jpeg, jpg, tif, tiff, png",
                "AttachmentTypeName": "TegningNyttSnitt",
                "MaxAttachmentCount": 99,
                "MaxFileSize": 30,
                "MinAttachmentCount": 0
            },
            {
                "AllowedFileTypes": "pdf, doc, jpeg, jpg, xls, tif, tiff, ppt, png, jpeg, docx, sos, txt, xlsx, xml",
                "AttachmentTypeName": "SluttrapportForAvfallsplan",
                "MaxAttachmentCount": 99,
                "MaxFileSize": 200,
                "MinAttachmentCount": 0
            },
            {
                "AllowedFileTypes": "pdf, jpeg, jpg, tif, tiff, png",
                "AttachmentTypeName": "Veielapp",
                "MaxAttachmentCount": 99,
                "MaxFileSize": 30,
                "MinAttachmentCount": 0
            },
            {
                "AllowedFileTypes": "pdf, jpeg, jpg, tif, tiff, png",
                "AttachmentTypeName": "Folgebrev",
                "MaxAttachmentCount": 1,
                "MaxFileSize": 30,
                "MinAttachmentCount": 0
            }
        ],
        "Forms": [
            {
                "DataFormatID": "5786",
                "DataFormatVersion": 42725,
                "FormName": "Gjennomf\u00f8ringsplanV4",
                "FormType": "SubForm",
                "Schema": "https://altinn.no/api/metadata/formtask/4400/2/forms/5786/42725/xsd"
            },
            {
                "DataFormatID": "5625",
                "DataFormatVersion": 42144,
                "FormName": "Matrikkelopplysninger",
                "FormType": "SubForm",
                "Schema": "https://altinn.no/api/metadata/formtask/4400/2/forms/5625/42144/xsd"
            },
            {
                "DataFormatID": "5797",
                "DataFormatVersion": 42813,
                "FormName": "Vedleggsopplysninger",
                "FormType": "SubForm",
                "Schema": "https://altinn.no/api/metadata/formtask/4400/2/forms/5797/42813/xsd"
            }
        ],
        "MainForm": {
            "DataFormatID": "5855",
            "DataFormatVersion": 43192,
            "FormName": "Ferdigattest",
            "FormType": "MainForm",
            "Schema": "https://altinn.no/api/metadata/formtask/4400/2/forms/5855/43192/xsd"
        },
        "ServiceCode": "4400",
        "ServiceEditionCode": 2,
        "ServiceName": "S\u00f8knad om ferdigattest",
        "Url": "https://altinn.no/api/metadata/formtask/4400/2",
        "ValidFrom": "2019-01-23T11:04:37.5",
        "ValidTo": "2046-02-18T13:37:00"
    },
    {
        "Attchments": [
            {
                "AllowedFileTypes": "*.*",
                "AttachmentTypeName": "SamtykkeArbeidstilsynet",
                "MaxAttachmentCount": 10,
                "MaxFileSize": 200,
                "MinAttachmentCount": 0
            },
            {
                "AllowedFileTypes": "pdf, doc, jpeg, jpg, xls, tif, tiff, ppt, png, jpeg, docx, sos, txt, xlsx, xml",
                "AttachmentTypeName": "ErklaeringAnsvarsrett",
                "MaxAttachmentCount": 99,
                "MaxFileSize": 200,
                "MinAttachmentCount": 0
            },
            {
                "AllowedFileTypes": "pdf, doc, jpeg, jpg, xls, tif, tiff, ppt, png, jpeg, docx, sos, txt, xlsx, xml",
                "AttachmentTypeName": "Avkjoerselsplan",
                "MaxAttachmentCount": 99,
                "MaxFileSize": 200,
                "MinAttachmentCount": 0
            },
            {
                "AllowedFileTypes": "pdf, jpeg, jpg, tif, tiff, png",
                "AttachmentTypeName": "Situasjonsplan",
                "MaxAttachmentCount": 99,
                "MaxFileSize": 30,
                "MinAttachmentCount": 0
            },
            {
                "AllowedFileTypes": "pdf, doc, jpeg, jpg, xls, tif, tiff, ppt, png, jpeg, docx, sos, txt, xlsx, xml",
                "AttachmentTypeName": "RedegjoerelseGrunnforhold",
                "MaxAttachmentCount": 99,
                "MaxFileSize": 200,
                "MinAttachmentCount": 0
            },
            {
                "AllowedFileTypes": "pdf, doc, jpeg, jpg, xls, tif, tiff, ppt, png, jpeg, docx, sos, txt, xlsx, xml",
                "AttachmentTypeName": "Gjennomfoeringsplan",
                "MaxAttachmentCount": 99,
                "MaxFileSize": 200,
                "MinAttachmentCount": 0
            },
            {
                "AllowedFileTypes": "pdf, doc, jpeg, jpg, xls, tif, tiff, ppt, png, jpeg, docx, sos, txt, xlsx, xml",
                "AttachmentTypeName": "BoligspesifikasjonMatrikkel",
                "MaxAttachmentCount": 99,
                "MaxFileSize": 200,
                "MinAttachmentCount": 0
            },
            {
                "AllowedFileTypes": "pdf, doc, jpeg, jpg, xls, tif, tiff, ppt, png, jpeg, docx, sos, txt, xlsx, xml",
                "AttachmentTypeName": "UttalelseVedtakAnnenOffentligMyndighet",
                "MaxAttachmentCount": 99,
                "MaxFileSize": 200,
                "MinAttachmentCount": 0
            },
            {
                "AllowedFileTypes": "pdf, jpeg, jpg, tif, tiff, png",
                "AttachmentTypeName": "Annet",
                "MaxAttachmentCount": 99,
                "MaxFileSize": 30,
                "MinAttachmentCount": 0
            },
            {
                "AllowedFileTypes": "pdf, doc, jpeg, jpg, xls, tif, tiff, ppt, png, jpeg, docx, sos, txt, xlsx, xml",
                "AttachmentTypeName": "Kart",
                "MaxAttachmentCount": 99,
                "MaxFileSize": 200,
                "MinAttachmentCount": 0
            },
            {
                "AllowedFileTypes": "pdf, doc, jpeg, jpg, xls, tif, tiff, ppt, png, jpeg, docx, sos, txt, xlsx, xml",
                "AttachmentTypeName": "RedegjoerelseForurensetGrunn",
                "MaxAttachmentCount": 99,
                "MaxFileSize": 200,
                "MinAttachmentCount": 0
            },
            {
                "AllowedFileTypes": "pdf, doc, jpeg, jpg, xls, tif, tiff, ppt, png, jpeg, docx, sos, txt, xlsx, xml",
                "AttachmentTypeName": "RedegjoerelseAndreNaturMiljoeforhold",
                "MaxAttachmentCount": 99,
                "MaxFileSize": 200,
                "MinAttachmentCount": 0
            },
            {
                "AllowedFileTypes": "pdf, doc, jpeg, jpg, xls, tif, tiff, ppt, png, jpeg, docx, sos, txt, xlsx, xml",
                "AttachmentTypeName": "RedegjoerelseSkredOgFlom",
                "MaxAttachmentCount": 99,
                "MaxFileSize": 200,
                "MinAttachmentCount": 0
            },
            {
                "AllowedFileTypes": "pdf, jpeg, jpg, tif, tiff, png",
                "AttachmentTypeName": "TegningNyFasade",
                "MaxAttachmentCount": 99,
                "MaxFileSize": 30,
                "MinAttachmentCount": 0
            },
            {
                "AllowedFileTypes": "pdf, jpeg, jpg, tif, tiff, png",
                "AttachmentTypeName": "TegningNyPlan",
                "MaxAttachmentCount": 99,
                "MaxFileSize": 30,
                "MinAttachmentCount": 0
            },
            {
                "AllowedFileTypes": "pdf, jpeg, jpg, tif, tiff, png",
                "AttachmentTypeName": "TegningNyttSnitt",
                "MaxAttachmentCount": 99,
                "MaxFileSize": 30,
                "MinAttachmentCount": 0
            },
            {
                "AllowedFileTypes": "pdf, doc, jpeg, jpg, xls, tif, tiff, ppt, png, jpeg, docx, sos, txt, xlsx, xml",
                "AttachmentTypeName": "TegningEksisterendeFasade",
                "MaxAttachmentCount": 99,
                "MaxFileSize": 200,
                "MinAttachmentCount": 0
            },
            {
                "AllowedFileTypes": "pdf, doc, jpeg, jpg, xls, tif, tiff, ppt, png, jpeg, docx, sos, txt, xlsx, xml",
                "AttachmentTypeName": "TegningEksisterendePlan",
                "MaxAttachmentCount": 99,
                "MaxFileSize": 200,
                "MinAttachmentCount": 0
            },
            {
                "AllowedFileTypes": "pdf, doc, jpeg, jpg, xls, tif, tiff, ppt, png, jpeg, docx, sos, txt, xlsx, xml",
                "AttachmentTypeName": "TegningEksisterendeSnitt",
                "MaxAttachmentCount": 99,
                "MaxFileSize": 200,
                "MinAttachmentCount": 0
            },
            {
                "AllowedFileTypes": "pdf, jpeg, jpg, tif, tiff, png",
                "AttachmentTypeName": "RedegjoerelseEstetikk",
                "MaxAttachmentCount": 99,
                "MaxFileSize": 30,
                "MinAttachmentCount": 0
            }
        ],
        "Forms": [
            {
                "DataFormatID": "5786",
                "DataFormatVersion": 42725,
                "FormName": "Gjennomf\u00f8ringsplanV4",
                "FormType": "SubForm",
                "Schema": "https://altinn.no/api/metadata/formtask/4401/2/forms/5786/42725/xsd"
            },
            {
                "DataFormatID": "5797",
                "DataFormatVersion": 42813,
                "FormName": "Vedleggsopplysninger",
                "FormType": "SubForm",
                "Schema": "https://altinn.no/api/metadata/formtask/4401/2/forms/5797/42813/xsd"
            },
            {
                "DataFormatID": "5625",
                "DataFormatVersion": 42144,
                "FormName": "Matrikkelopplysninger",
                "FormType": "SubForm",
                "Schema": "https://altinn.no/api/metadata/formtask/4401/2/forms/5625/42144/xsd"
            },
            {
                "DataFormatID": "5700",
                "DataFormatVersion": 42467,
                "FormName": "Erkl\u00e6ring om ansvarsrett",
                "FormType": "SubForm",
                "Schema": "https://altinn.no/api/metadata/formtask/4401/2/forms/5700/42467/xsd"
            }
        ],
        "MainForm": {
            "DataFormatID": "5845",
            "DataFormatVersion": 43007,
            "FormName": "S\u00f8knad om igangsettingstillatelse",
            "FormType": "MainForm",
            "Schema": "https://altinn.no/api/metadata/formtask/4401/2/forms/5845/43007/xsd"
        },
        "ServiceCode": "4401",
        "ServiceEditionCode": 2,
        "ServiceName": "S\u00f8knad om igangsettingstillatelse",
        "Url": "https://altinn.no/api/metadata/formtask/4401/2",
        "ValidFrom": "2019-01-23T11:06:58.347",
        "ValidTo": "2046-02-15T15:58:00"
    },
    {
        "Attchments": [
            {
                "AllowedFileTypes": "pdf, doc, jpeg, jpg, xls, tif, tiff, ppt, png, jpeg, docx, sos, txt, xlsx, xml",
                "AttachmentTypeName": "Avkjoerselsplan",
                "MaxAttachmentCount": 99,
                "MaxFileSize": 200,
                "MinAttachmentCount": 0
            },
            {
                "AllowedFileTypes": "pdf, jpeg, jpg, tif, tiff, png",
                "AttachmentTypeName": "Situasjonsplan",
                "MaxAttachmentCount": 99,
                "MaxFileSize": 30,
                "MinAttachmentCount": 0
            },
            {
                "AllowedFileTypes": "pdf, doc, jpeg, jpg, xls, tif, tiff, ppt, png, jpeg, docx, sos, txt, xlsx, xml",
                "AttachmentTypeName": "RedegjoerelseGrunnforhold",
                "MaxAttachmentCount": 99,
                "MaxFileSize": 200,
                "MinAttachmentCount": 0
            },
            {
                "AllowedFileTypes": "pdf, doc, jpeg, jpg, xls, tif, tiff, ppt, png, jpeg, docx, sos, txt, xlsx, xml",
                "AttachmentTypeName": "Gjennomfoeringsplan",
                "MaxAttachmentCount": 99,
                "MaxFileSize": 200,
                "MinAttachmentCount": 0
            },
            {
                "AllowedFileTypes": "pdf, doc, jpeg, jpg, xls, tif, tiff, ppt, png, jpeg, docx, sos, txt, xlsx, xml",
                "AttachmentTypeName": "BoligspesifikasjonMatrikkel",
                "MaxAttachmentCount": 99,
                "MaxFileSize": 200,
                "MinAttachmentCount": 0
            },
            {
                "AllowedFileTypes": "pdf, doc, jpeg, jpg, xls, tif, tiff, ppt, png, jpeg, docx, sos, txt, xlsx, xml",
                "AttachmentTypeName": "UttalelseVedtakAnnenOffentligMyndighet",
                "MaxAttachmentCount": 99,
                "MaxFileSize": 200,
                "MinAttachmentCount": 0
            },
            {
                "AllowedFileTypes": "pdf, jpeg, jpg, tif, tiff, png",
                "AttachmentTypeName": "Annet",
                "MaxAttachmentCount": 99,
                "MaxFileSize": 30,
                "MinAttachmentCount": 0
            },
            {
                "AllowedFileTypes": "pdf, doc, jpeg, jpg, xls, tif, tiff, ppt, png, jpeg, docx, sos, txt, xlsx, xml",
                "AttachmentTypeName": "Kart",
                "MaxAttachmentCount": 99,
                "MaxFileSize": 200,
                "MinAttachmentCount": 0
            },
            {
                "AllowedFileTypes": "pdf, doc, jpeg, jpg, xls, tif, tiff, ppt, png, jpeg, docx, sos, txt, xlsx, xml",
                "AttachmentTypeName": "RedegjoerelseForurensetGrunn",
                "MaxAttachmentCount": 99,
                "MaxFileSize": 200,
                "MinAttachmentCount": 0
            },
            {
                "AllowedFileTypes": "pdf, doc, jpeg, jpg, xls, tif, tiff, ppt, png, jpeg, docx, sos, txt, xlsx, xml",
                "AttachmentTypeName": "RedegjoerelseAndreNaturMiljoeforhold",
                "MaxAttachmentCount": 99,
                "MaxFileSize": 200,
                "MinAttachmentCount": 0
            },
            {
                "AllowedFileTypes": "pdf, doc, jpeg, jpg, xls, tif, tiff, ppt, png, jpeg, docx, sos, txt, xlsx, xml",
                "AttachmentTypeName": "RedegjoerelseSkredOgFlom",
                "MaxAttachmentCount": 99,
                "MaxFileSize": 200,
                "MinAttachmentCount": 0
            },
            {
                "AllowedFileTypes": "pdf, jpeg, jpg, tif, tiff, png",
                "AttachmentTypeName": "TegningNyFasade",
                "MaxAttachmentCount": 99,
                "MaxFileSize": 30,
                "MinAttachmentCount": 0
            },
            {
                "AllowedFileTypes": "pdf, jpeg, jpg, tif, tiff, png",
                "AttachmentTypeName": "TegningNyPlan",
                "MaxAttachmentCount": 99,
                "MaxFileSize": 30,
                "MinAttachmentCount": 0
            },
            {
                "AllowedFileTypes": "pdf, jpeg, jpg, tif, tiff, png",
                "AttachmentTypeName": "TegningNyttSnitt",
                "MaxAttachmentCount": 99,
                "MaxFileSize": 30,
                "MinAttachmentCount": 0
            },
            {
                "AllowedFileTypes": "pdf, jpeg, jpg, tif, tiff, png",
                "AttachmentTypeName": "RedegjoerelseEstetikk",
                "MaxAttachmentCount": 99,
                "MaxFileSize": 30,
                "MinAttachmentCount": 0
            }
        ],
        "Forms": [
            {
                "DataFormatID": "5786",
                "DataFormatVersion": 42725,
                "FormName": "Gjennomf\u00f8ringsplanV4",
                "FormType": "SubForm",
                "Schema": "https://altinn.no/api/metadata/formtask/4399/5/forms/5786/42725/xsd"
            },
            {
                "DataFormatID": "5625",
                "DataFormatVersion": 42144,
                "FormName": "Matrikkelopplysninger",
                "FormType": "SubForm",
                "Schema": "https://altinn.no/api/metadata/formtask/4399/5/forms/5625/42144/xsd"
            },
            {
                "DataFormatID": "5797",
                "DataFormatVersion": 42813,
                "FormName": "Vedleggsopplysninger",
                "FormType": "SubForm",
                "Schema": "https://altinn.no/api/metadata/formtask/4399/5/forms/5797/42813/xsd"
            },
            {
                "DataFormatID": "5700",
                "DataFormatVersion": 42467,
                "FormName": "Erkl\u00e6ring om ansvarsrett",
                "FormType": "SubForm",
                "Schema": "https://altinn.no/api/metadata/formtask/4399/5/forms/5700/42467/xsd"
            }
        ],
        "MainForm": {
            "DataFormatID": "5844",
            "DataFormatVersion": 43006,
            "FormName": "S\u00f8knad om midlertidig brukstillatelse",
            "FormType": "MainForm",
            "Schema": "https://altinn.no/api/metadata/formtask/4399/5/forms/5844/43006/xsd"
        },
        "ServiceCode": "4399",
        "ServiceEditionCode": 5,
        "ServiceName": "S\u00f8knad om midlertidig brukstillatelse",
        "Url": "https://altinn.no/api/metadata/formtask/4399/5",
        "ValidFrom": "2019-01-23T11:01:05.717",
        "ValidTo": "2046-02-18T15:24:00"
    },
    {
        "Attchments": [
            {
                "AllowedFileTypes": "ifc",
                "AttachmentTypeName": "ByggesaksBIM",
                "MaxAttachmentCount": 10,
                "MaxFileSize": 200,
                "MinAttachmentCount": 0
            },
            {
                "AllowedFileTypes": "*.*",
                "AttachmentTypeName": "UttalelseKulturminnemyndighet",
                "MaxAttachmentCount": 10,
                "MaxFileSize": 200,
                "MinAttachmentCount": 0
            },
            {
                "AllowedFileTypes": "*.*",
                "AttachmentTypeName": "SamtykkeArbeidstilsynet",
                "MaxAttachmentCount": 10,
                "MaxFileSize": 200,
                "MinAttachmentCount": 0
            },
            {
                "AllowedFileTypes": "*.*",
                "AttachmentTypeName": "AvkjoeringstillatelseVegmyndighet",
                "MaxAttachmentCount": 10,
                "MaxFileSize": 200,
                "MinAttachmentCount": 0
            },
            {
                "AllowedFileTypes": "*.*",
                "AttachmentTypeName": "RedegjoerelseUnntakTEK",
                "MaxAttachmentCount": 10,
                "MaxFileSize": 200,
                "MinAttachmentCount": 0
            },
            {
                "AllowedFileTypes": "*.*",
                "AttachmentTypeName": "UnderlagUtnytting",
                "MaxAttachmentCount": 10,
                "MaxFileSize": 200,
                "MinAttachmentCount": 0
            },
            {
                "AllowedFileTypes": "*.*",
                "AttachmentTypeName": "KvitteringNabovarsel",
                "MaxAttachmentCount": 99,
                "MaxFileSize": 200,
                "MinAttachmentCount": 0
            },
            {
                "AllowedFileTypes": "pdf, doc, jpeg, jpg, xls, tif, tiff, ppt, png, jpeg, docx, sos, txt, xlsx, xml",
                "AttachmentTypeName": "ErklaeringAnsvarsrett",
                "MaxAttachmentCount": 99,
                "MaxFileSize": 200,
                "MinAttachmentCount": 0
            },
            {
                "AllowedFileTypes": "pdf, doc, jpeg, jpg, xls, tif, tiff, ppt, png, jpeg, docx, sos, txt, xlsx, xml",
                "AttachmentTypeName": "Nabomerknader",
                "MaxAttachmentCount": 99,
                "MaxFileSize": 200,
                "MinAttachmentCount": 0
            },
            {
                "AllowedFileTypes": "pdf, doc, jpeg, jpg, xls, tif, tiff, ppt, png, jpeg, docx, sos, txt, xlsx, xml",
                "AttachmentTypeName": "Avkjoerselsplan",
                "MaxAttachmentCount": 99,
                "MaxFileSize": 200,
                "MinAttachmentCount": 0
            },
            {
                "AllowedFileTypes": "pdf, jpeg, jpg, tif, tiff, png",
                "AttachmentTypeName": "Situasjonsplan",
                "MaxAttachmentCount": 99,
                "MaxFileSize": 30,
                "MinAttachmentCount": 0
            },
            {
                "AllowedFileTypes": "pdf, doc, jpeg, jpg, xls, tif, tiff, ppt, png, jpeg, docx, sos, txt, xlsx, xml",
                "AttachmentTypeName": "RedegjoerelseGrunnforhold",
                "MaxAttachmentCount": 99,
                "MaxFileSize": 200,
                "MinAttachmentCount": 0
            },
            {
                "AllowedFileTypes": "pdf, doc, jpeg, jpg, xls, tif, tiff, ppt, png, jpeg, docx, sos, txt, xlsx, xml",
                "AttachmentTypeName": "Gjennomfoeringsplan",
                "MaxAttachmentCount": 99,
                "MaxFileSize": 200,
                "MinAttachmentCount": 0
            },
            {
                "AllowedFileTypes": "pdf, doc, jpeg, jpg, xls, tif, tiff, ppt, png, jpeg, docx, sos, txt, xlsx, xml",
                "AttachmentTypeName": "BoligspesifikasjonMatrikkel",
                "MaxAttachmentCount": 99,
                "MaxFileSize": 200,
                "MinAttachmentCount": 0
            },
            {
                "AllowedFileTypes": "pdf, doc, jpeg, jpg, xls, tif, tiff, ppt, png, jpeg, docx, sos, txt, xlsx, xml",
                "AttachmentTypeName": "UttalelseVedtakAnnenOffentligMyndighet",
                "MaxAttachmentCount": 99,
                "MaxFileSize": 200,
                "MinAttachmentCount": 0
            },
            {
                "AllowedFileTypes": "pdf, jpeg, jpg, tif, tiff, png",
                "AttachmentTypeName": "Annet",
                "MaxAttachmentCount": 99,
                "MaxFileSize": 30,
                "MinAttachmentCount": 0
            },
            {
                "AllowedFileTypes": "pdf, doc, jpeg, jpg, xls, tif, tiff, ppt, png, jpeg, docx, sos, txt, xlsx, xml",
                "AttachmentTypeName": "Kart",
                "MaxAttachmentCount": 99,
                "MaxFileSize": 200,
                "MinAttachmentCount": 0
            },
            {
                "AllowedFileTypes": "pdf, doc, jpeg, jpg, xls, tif, tiff, ppt, png, jpeg, docx, sos, txt, xlsx, xml",
                "AttachmentTypeName": "RedegjoerelseForurensetGrunn",
                "MaxAttachmentCount": 99,
                "MaxFileSize": 200,
                "MinAttachmentCount": 0
            },
            {
                "AllowedFileTypes": "pdf, doc, jpeg, jpg, xls, tif, tiff, ppt, png, jpeg, docx, sos, txt, xlsx, xml",
                "AttachmentTypeName": "RedegjoerelseAndreNaturMiljoeforhold",
                "MaxAttachmentCount": 99,
                "MaxFileSize": 200,
                "MinAttachmentCount": 0
            },
            {
                "AllowedFileTypes": "pdf, doc, jpeg, jpg, xls, tif, tiff, ppt, png, jpeg, docx, sos, txt, xlsx, xml",
                "AttachmentTypeName": "RedegjoerelseSkredOgFlom",
                "MaxAttachmentCount": 99,
                "MaxFileSize": 200,
                "MinAttachmentCount": 0
            },
            {
                "AllowedFileTypes": "pdf, jpeg, jpg, tif, tiff, png",
                "AttachmentTypeName": "TegningNyFasade",
                "MaxAttachmentCount": 99,
                "MaxFileSize": 30,
                "MinAttachmentCount": 0
            },
            {
                "AllowedFileTypes": "pdf, jpeg, jpg, tif, tiff, png",
                "AttachmentTypeName": "TegningNyPlan",
                "MaxAttachmentCount": 99,
                "MaxFileSize": 30,
                "MinAttachmentCount": 0
            },
            {
                "AllowedFileTypes": "pdf, jpeg, jpg, tif, tiff, png",
                "AttachmentTypeName": "TegningNyttSnitt",
                "MaxAttachmentCount": 99,
                "MaxFileSize": 30,
                "MinAttachmentCount": 0
            },
            {
                "AllowedFileTypes": "pdf, doc, jpeg, jpg, xls, tif, tiff, ppt, png, jpeg, docx, sos, txt, xlsx, xml",
                "AttachmentTypeName": "TegningEksisterendeFasade",
                "MaxAttachmentCount": 99,
                "MaxFileSize": 200,
                "MinAttachmentCount": 0
            },
            {
                "AllowedFileTypes": "pdf, doc, jpeg, jpg, xls, tif, tiff, ppt, png, jpeg, docx, sos, txt, xlsx, xml",
                "AttachmentTypeName": "TegningEksisterendePlan",
                "MaxAttachmentCount": 99,
                "MaxFileSize": 200,
                "MinAttachmentCount": 0
            },
            {
                "AllowedFileTypes": "pdf, doc, jpeg, jpg, xls, tif, tiff, ppt, png, jpeg, docx, sos, txt, xlsx, xml",
                "AttachmentTypeName": "TegningEksisterendeSnitt",
                "MaxAttachmentCount": 99,
                "MaxFileSize": 200,
                "MinAttachmentCount": 0
            },
            {
                "AllowedFileTypes": "pdf, doc, jpeg, jpg, xls, tif, tiff, ppt, png, jpeg, docx, sos, txt, xlsx, xml",
                "AttachmentTypeName": "Dispensasjonssoeknad",
                "MaxAttachmentCount": 99,
                "MaxFileSize": 30,
                "MinAttachmentCount": 0
            },
            {
                "AllowedFileTypes": "pdf, doc, jpeg, jpg, xls, tif, tiff, ppt, png, jpeg, docx, sos, txt, xlsx, xml",
                "AttachmentTypeName": "Nabovarsel",
                "MaxAttachmentCount": 99,
                "MaxFileSize": 30,
                "MinAttachmentCount": 0
            },
            {
                "AllowedFileTypes": "pdf, doc, jpeg, jpg, xls, tif, tiff, ppt, png, jpeg, docx, sos, txt, xlsx, xml",
                "AttachmentTypeName": "RekvisisjonAvOppmaalingsforretning",
                "MaxAttachmentCount": 99,
                "MaxFileSize": 200,
                "MinAttachmentCount": 0
            },
            {
                "AllowedFileTypes": "pdf, doc, jpeg, jpg, xls, tif, tiff, ppt, png, jpeg, docx, sos, txt, xlsx, xml",
                "AttachmentTypeName": "KommentarNabomerknader",
                "MaxAttachmentCount": 99,
                "MaxFileSize": 200,
                "MinAttachmentCount": 0
            },
            {
                "AllowedFileTypes": "pdf, doc, jpeg, jpg, xls, tif, tiff, ppt, png, jpeg, docx, sos, txt, xlsx, xml",
                "AttachmentTypeName": "AvklaringHoyspent",
                "MaxAttachmentCount": 10,
                "MaxFileSize": 200,
                "MinAttachmentCount": 0
            },
            {
                "AllowedFileTypes": "pdf, doc, jpeg, jpg, xls, tif, tiff, ppt, png, jpeg, docx, sos, txt, xlsx, xml",
                "AttachmentTypeName": "AvklaringVA",
                "MaxAttachmentCount": 10,
                "MaxFileSize": 200,
                "MinAttachmentCount": 0
            },
            {
                "AllowedFileTypes": "pdf, jpeg, jpg, tif, tiff, png",
                "AttachmentTypeName": "RedegjoerelseEstetikk",
                "MaxAttachmentCount": 99,
                "MaxFileSize": 30,
                "MinAttachmentCount": 0
            },
            {
                "AllowedFileTypes": "pdf, jpeg, jpg, tif, tiff, png",
                "AttachmentTypeName": "Folgebrev",
                "MaxAttachmentCount": 1,
                "MaxFileSize": 30,
                "MinAttachmentCount": 0
            }
        ],
        "Forms": [
            {
                "DataFormatID": "5786",
                "DataFormatVersion": 42725,
                "FormName": "Gjennomf\u00f8ringsplanV4",
                "FormType": "SubForm",
                "Schema": "https://altinn.no/api/metadata/formtask/4397/2/forms/5786/42725/xsd"
            },
            {
                "DataFormatID": "5797",
                "DataFormatVersion": 42813,
                "FormName": "Vedleggsopplysninger",
                "FormType": "SubForm",
                "Schema": "https://altinn.no/api/metadata/formtask/4397/2/forms/5797/42813/xsd"
            },
            {
                "DataFormatID": "5700",
                "DataFormatVersion": 42467,
                "FormName": "Erkl\u00e6ring om ansvarsrett",
                "FormType": "SubForm",
                "Schema": "https://altinn.no/api/metadata/formtask/4397/2/forms/5700/42467/xsd"
            },
            {
                "DataFormatID": "5625",
                "DataFormatVersion": 42144,
                "FormName": "Matrikkelopplysninger",
                "FormType": "SubForm",
                "Schema": "https://altinn.no/api/metadata/formtask/4397/2/forms/5625/42144/xsd"
            },
            {
                "DataFormatID": "5826",
                "DataFormatVersion": 42895,
                "FormName": "Gjenpart nabovarsel",
                "FormType": "SubForm",
                "Schema": "https://altinn.no/api/metadata/formtask/4397/2/forms/5826/42895/xsd"
            }
        ],
        "MainForm": {
            "DataFormatID": "5693",
            "DataFormatVersion": 42425,
            "FormName": "S\u00f8knad om rammetillatelse",
            "FormType": "MainForm",
            "Schema": "https://altinn.no/api/metadata/formtask/4397/2/forms/5693/42425/xsd"
        },
        "ServiceCode": "4397",
        "ServiceEditionCode": 2,
        "ServiceName": "S\u00f8knad om rammetillatelse",
        "Url": "https://altinn.no/api/metadata/formtask/4397/2",
        "ValidFrom": "2019-01-23T11:02:26.263",
        "ValidTo": "2047-10-12T00:57:00"
    },
    {
        "Attchments": [
            {
                "AllowedFileTypes": "ifc",
                "AttachmentTypeName": "ByggesaksBIM",
                "MaxAttachmentCount": 10,
                "MaxFileSize": 200,
                "MinAttachmentCount": 0
            },
            {
                "AllowedFileTypes": "*.*",
                "AttachmentTypeName": "UttalelseKulturminnemyndighet",
                "MaxAttachmentCount": 10,
                "MaxFileSize": 200,
                "MinAttachmentCount": 0
            },
            {
                "AllowedFileTypes": "*.*",
                "AttachmentTypeName": "SamtykkeArbeidstilsynet",
                "MaxAttachmentCount": 10,
                "MaxFileSize": 200,
                "MinAttachmentCount": 0
            },
            {
                "AllowedFileTypes": "*.*",
                "AttachmentTypeName": "AvkjoeringstillatelseVegmyndighet",
                "MaxAttachmentCount": 10,
                "MaxFileSize": 200,
                "MinAttachmentCount": 0
            },
            {
                "AllowedFileTypes": "*.*",
                "AttachmentTypeName": "RedegjoerelseUnntakTEK",
                "MaxAttachmentCount": 10,
                "MaxFileSize": 200,
                "MinAttachmentCount": 0
            },
            {
                "AllowedFileTypes": "*.*",
                "AttachmentTypeName": "UnderlagUtnytting",
                "MaxAttachmentCount": 10,
                "MaxFileSize": 200,
                "MinAttachmentCount": 0
            },
            {
                "AllowedFileTypes": "*.*",
                "AttachmentTypeName": "KvitteringNabovarsel",
                "MaxAttachmentCount": 99,
                "MaxFileSize": 200,
                "MinAttachmentCount": 0
            },
            {
                "AllowedFileTypes": "pdf, doc, jpeg, jpg, xls, tif, tiff, ppt, png, jpeg, docx, sos, txt, xlsx, xml",
                "AttachmentTypeName": "ErklaeringAnsvarsrett",
                "MaxAttachmentCount": 99,
                "MaxFileSize": 200,
                "MinAttachmentCount": 0
            },
            {
                "AllowedFileTypes": "pdf, doc, jpeg, jpg, xls, tif, tiff, ppt, png, jpeg, docx, sos, txt, xlsx, xml",
                "AttachmentTypeName": "Nabomerknader",
                "MaxAttachmentCount": 99,
                "MaxFileSize": 200,
                "MinAttachmentCount": 0
            },
            {
                "AllowedFileTypes": "pdf, doc, jpeg, jpg, xls, tif, tiff, ppt, png, jpeg, docx, sos, txt, xlsx, xml",
                "AttachmentTypeName": "Avkjoerselsplan",
                "MaxAttachmentCount": 99,
                "MaxFileSize": 200,
                "MinAttachmentCount": 0
            },
            {
                "AllowedFileTypes": "pdf, jpeg, jpg, tif, tiff, png",
                "AttachmentTypeName": "Situasjonsplan",
                "MaxAttachmentCount": 99,
                "MaxFileSize": 30,
                "MinAttachmentCount": 0
            },
            {
                "AllowedFileTypes": "pdf, doc, jpeg, jpg, xls, tif, tiff, ppt, png, jpeg, docx, sos, txt, xlsx, xml",
                "AttachmentTypeName": "RedegjoerelseGrunnforhold",
                "MaxAttachmentCount": 99,
                "MaxFileSize": 200,
                "MinAttachmentCount": 0
            },
            {
                "AllowedFileTypes": "pdf, doc, jpeg, jpg, xls, tif, tiff, ppt, png, jpeg, docx, sos, txt, xlsx, xml",
                "AttachmentTypeName": "Gjennomfoeringsplan",
                "MaxAttachmentCount": 99,
                "MaxFileSize": 200,
                "MinAttachmentCount": 0
            },
            {
                "AllowedFileTypes": "pdf, doc, jpeg, jpg, xls, tif, tiff, ppt, png, jpeg, docx, sos, txt, xlsx, xml",
                "AttachmentTypeName": "BoligspesifikasjonMatrikkel",
                "MaxAttachmentCount": 99,
                "MaxFileSize": 200,
                "MinAttachmentCount": 0
            },
            {
                "AllowedFileTypes": "pdf, doc, jpeg, jpg, xls, tif, tiff, ppt, png, jpeg, docx, sos, txt, xlsx, xml",
                "AttachmentTypeName": "UttalelseVedtakAnnenOffentligMyndighet",
                "MaxAttachmentCount": 99,
                "MaxFileSize": 200,
                "MinAttachmentCount": 0
            },
            {
                "AllowedFileTypes": "pdf, jpeg, jpg, tif, tiff, png",
                "AttachmentTypeName": "Annet",
                "MaxAttachmentCount": 99,
                "MaxFileSize": 30,
                "MinAttachmentCount": 0
            },
            {
                "AllowedFileTypes": "pdf, doc, jpeg, jpg, xls, tif, tiff, ppt, png, jpeg, docx, sos, txt, xlsx, xml",
                "AttachmentTypeName": "RedegjoerelseForurensetGrunn",
                "MaxAttachmentCount": 99,
                "MaxFileSize": 200,
                "MinAttachmentCount": 0
            },
            {
                "AllowedFileTypes": "pdf, doc, jpeg, jpg, xls, tif, tiff, ppt, png, jpeg, docx, sos, txt, xlsx, xml",
                "AttachmentTypeName": "RedegjoerelseAndreNaturMiljoeforhold",
                "MaxAttachmentCount": 99,
                "MaxFileSize": 200,
                "MinAttachmentCount": 0
            },
            {
                "AllowedFileTypes": "pdf, doc, jpeg, jpg, xls, tif, tiff, ppt, png, jpeg, docx, sos, txt, xlsx, xml",
                "AttachmentTypeName": "RedegjoerelseSkredOgFlom",
                "MaxAttachmentCount": 99,
                "MaxFileSize": 200,
                "MinAttachmentCount": 0
            },
            {
                "AllowedFileTypes": "pdf, jpeg, jpg, tif, tiff, png",
                "AttachmentTypeName": "TegningNyFasade",
                "MaxAttachmentCount": 99,
                "MaxFileSize": 30,
                "MinAttachmentCount": 0
            },
            {
                "AllowedFileTypes": "pdf, jpeg, jpg, tif, tiff, png",
                "AttachmentTypeName": "TegningNyPlan",
                "MaxAttachmentCount": 99,
                "MaxFileSize": 30,
                "MinAttachmentCount": 0
            },
            {
                "AllowedFileTypes": "pdf, jpeg, jpg, tif, tiff, png",
                "AttachmentTypeName": "TegningNyttSnitt",
                "MaxAttachmentCount": 99,
                "MaxFileSize": 30,
                "MinAttachmentCount": 0
            },
            {
                "AllowedFileTypes": "pdf, doc, jpeg, jpg, xls, tif, tiff, ppt, png, jpeg, docx, sos, txt, xlsx, xml",
                "AttachmentTypeName": "TegningEksisterendeFasade",
                "MaxAttachmentCount": 99,
                "MaxFileSize": 200,
                "MinAttachmentCount": 0
            },
            {
                "AllowedFileTypes": "pdf, doc, jpeg, jpg, xls, tif, tiff, ppt, png, jpeg, docx, sos, txt, xlsx, xml",
                "AttachmentTypeName": "TegningEksisterendePlan",
                "MaxAttachmentCount": 99,
                "MaxFileSize": 200,
                "MinAttachmentCount": 0
            },
            {
                "AllowedFileTypes": "pdf, doc, jpeg, jpg, xls, tif, tiff, ppt, png, jpeg, docx, sos, txt, xlsx, xml",
                "AttachmentTypeName": "TegningEksisterendeSnitt",
                "MaxAttachmentCount": 99,
                "MaxFileSize": 200,
                "MinAttachmentCount": 0
            },
            {
                "AllowedFileTypes": "pdf, doc, jpeg, jpg, xls, tif, tiff, ppt, png, jpeg, docx, sos, txt, xlsx, xml",
                "AttachmentTypeName": "Dispensasjonssoeknad",
                "MaxAttachmentCount": 99,
                "MaxFileSize": 30,
                "MinAttachmentCount": 0
            },
            {
                "AllowedFileTypes": "pdf, doc, jpeg, jpg, xls, tif, tiff, ppt, png, jpeg, docx, sos, txt, xlsx, xml",
                "AttachmentTypeName": "Nabovarsel",
                "MaxAttachmentCount": 99,
                "MaxFileSize": 30,
                "MinAttachmentCount": 0
            },
            {
                "AllowedFileTypes": "pdf, doc, jpeg, jpg, xls, tif, tiff, ppt, png, jpeg, docx, sos, txt, xlsx, xml",
                "AttachmentTypeName": "KommentarNabomerknader",
                "MaxAttachmentCount": 99,
                "MaxFileSize": 200,
                "MinAttachmentCount": 0
            },
            {
                "AllowedFileTypes": "pdf, doc, jpeg, jpg, xls, tif, tiff, ppt, png, jpeg, docx, sos, txt, xlsx, xml",
                "AttachmentTypeName": "AvklaringHoyspent",
                "MaxAttachmentCount": 10,
                "MaxFileSize": 200,
                "MinAttachmentCount": 0
            },
            {
                "AllowedFileTypes": "pdf, doc, jpeg, jpg, xls, tif, tiff, ppt, png, jpeg, docx, sos, txt, xlsx, xml",
                "AttachmentTypeName": "AvklaringVA",
                "MaxAttachmentCount": 10,
                "MaxFileSize": 200,
                "MinAttachmentCount": 0
            },
            {
                "AllowedFileTypes": "pdf, jpeg, jpg, tif, tiff, png",
                "AttachmentTypeName": "RedegjoerelseEstetikk",
                "MaxAttachmentCount": 99,
                "MaxFileSize": 30,
                "MinAttachmentCount": 0
            },
            {
                "AllowedFileTypes": "pdf, jpeg, jpg, tif, tiff, png",
                "AttachmentTypeName": "Folgebrev",
                "MaxAttachmentCount": 1,
                "MaxFileSize": 30,
                "MinAttachmentCount": 0
            }
        ],
        "Forms": [
            {
                "DataFormatID": "5786",
                "DataFormatVersion": 42725,
                "FormName": "Gjennomf\u00f8ringsplanV4",
                "FormType": "SubForm",
                "Schema": "https://altinn.no/api/metadata/formtask/4528/2/forms/5786/42725/xsd"
            },
            {
                "DataFormatID": "5797",
                "DataFormatVersion": 42813,
                "FormName": "Vedleggsopplysninger",
                "FormType": "SubForm",
                "Schema": "https://altinn.no/api/metadata/formtask/4528/2/forms/5797/42813/xsd"
            },
            {
                "DataFormatID": "5700",
                "DataFormatVersion": 42467,
                "FormName": "Erkl\u00e6ring om ansvarsrett",
                "FormType": "SubForm",
                "Schema": "https://altinn.no/api/metadata/formtask/4528/2/forms/5700/42467/xsd"
            },
            {
                "DataFormatID": "5625",
                "DataFormatVersion": 42144,
                "FormName": "Matrikkelopplysninger",
                "FormType": "SubForm",
                "Schema": "https://altinn.no/api/metadata/formtask/4528/2/forms/5625/42144/xsd"
            },
            {
                "DataFormatID": "5547",
                "DataFormatVersion": 41999,
                "FormName": "S\u00f8knad om Arbeidstilsynets samtykke",
                "FormType": "SubForm",
                "Schema": "https://altinn.no/api/metadata/formtask/4528/2/forms/5547/41999/xsd"
            }
        ],
        "MainForm": {
            "DataFormatID": "5694",
            "DataFormatVersion": 42434,
            "FormName": "S\u00f8knad om tillatelse i ett trinn",
            "FormType": "MainForm",
            "Schema": "https://altinn.no/api/metadata/formtask/4528/2/forms/5694/42434/xsd"
        },
        "ServiceCode": "4528",
        "ServiceEditionCode": 2,
        "ServiceName": "S\u00f8knad om tillatelse i ett trinn",
        "Url": "https://altinn.no/api/metadata/formtask/4528/2",
        "ValidFrom": "2019-01-23T11:03:26.78",
        "ValidTo": "2047-10-16T10:56:00"
    },
    {
        "Attchments": [
            {
                "AllowedFileTypes": "*.*",
                "AttachmentTypeName": "AvkjoeringstillatelseVegmyndighet",
                "MaxAttachmentCount": 10,
                "MaxFileSize": 200,
                "MinAttachmentCount": 0
            },
            {
                "AllowedFileTypes": "*.*",
                "AttachmentTypeName": "KvitteringNabovarsel",
                "MaxAttachmentCount": 99,
                "MaxFileSize": 200,
                "MinAttachmentCount": 0
            },
            {
                "AllowedFileTypes": "pdf, doc, jpeg, jpg, xls, tif, tiff, ppt, png, jpeg, docx, sos, txt, xlsx, xml",
                "AttachmentTypeName": "Nabomerknader",
                "MaxAttachmentCount": 99,
                "MaxFileSize": 200,
                "MinAttachmentCount": 0
            },
            {
                "AllowedFileTypes": "pdf, doc, jpeg, jpg, xls, tif, tiff, ppt, png, jpeg, docx, sos, txt, xlsx, xml",
                "AttachmentTypeName": "Avkjoerselsplan",
                "MaxAttachmentCount": 99,
                "MaxFileSize": 200,
                "MinAttachmentCount": 0
            },
            {
                "AllowedFileTypes": "pdf, jpeg, jpg, tif, tiff, png",
                "AttachmentTypeName": "Situasjonsplan",
                "MaxAttachmentCount": 99,
                "MaxFileSize": 30,
                "MinAttachmentCount": 0
            },
            {
                "AllowedFileTypes": "pdf, doc, jpeg, jpg, xls, tif, tiff, ppt, png, jpeg, docx, sos, txt, xlsx, xml",
                "AttachmentTypeName": "UttalelseVedtakAnnenOffentligMyndighet",
                "MaxAttachmentCount": 99,
                "MaxFileSize": 200,
                "MinAttachmentCount": 0
            },
            {
                "AllowedFileTypes": "pdf, jpeg, jpg, tif, tiff, png",
                "AttachmentTypeName": "Annet",
                "MaxAttachmentCount": 99,
                "MaxFileSize": 30,
                "MinAttachmentCount": 0
            },
            {
                "AllowedFileTypes": "pdf, doc, jpeg, jpg, xls, tif, tiff, ppt, png, jpeg, docx, sos, txt, xlsx, xml",
                "AttachmentTypeName": "RedegjoerelseAndreNaturMiljoeforhold",
                "MaxAttachmentCount": 99,
                "MaxFileSize": 200,
                "MinAttachmentCount": 0
            },
            {
                "AllowedFileTypes": "pdf, doc, jpeg, jpg, xls, tif, tiff, ppt, png, jpeg, docx, sos, txt, xlsx, xml",
                "AttachmentTypeName": "RedegjoerelseSkredOgFlom",
                "MaxAttachmentCount": 99,
                "MaxFileSize": 200,
                "MinAttachmentCount": 0
            },
            {
                "AllowedFileTypes": "pdf, jpeg, jpg, tif, tiff, png",
                "AttachmentTypeName": "TegningNyFasade",
                "MaxAttachmentCount": 99,
                "MaxFileSize": 30,
                "MinAttachmentCount": 0
            },
            {
                "AllowedFileTypes": "pdf, jpeg, jpg, tif, tiff, png",
                "AttachmentTypeName": "TegningNyPlan",
                "MaxAttachmentCount": 99,
                "MaxFileSize": 30,
                "MinAttachmentCount": 0
            },
            {
                "AllowedFileTypes": "pdf, jpeg, jpg, tif, tiff, png",
                "AttachmentTypeName": "TegningNyttSnitt",
                "MaxAttachmentCount": 99,
                "MaxFileSize": 30,
                "MinAttachmentCount": 0
            },
            {
                "AllowedFileTypes": "pdf, doc, jpeg, jpg, xls, tif, tiff, ppt, png, jpeg, docx, sos, txt, xlsx, xml",
                "AttachmentTypeName": "TegningEksisterendeFasade",
                "MaxAttachmentCount": 99,
                "MaxFileSize": 200,
                "MinAttachmentCount": 0
            },
            {
                "AllowedFileTypes": "pdf, doc, jpeg, jpg, xls, tif, tiff, ppt, png, jpeg, docx, sos, txt, xlsx, xml",
                "AttachmentTypeName": "TegningEksisterendePlan",
                "MaxAttachmentCount": 99,
                "MaxFileSize": 200,
                "MinAttachmentCount": 0
            },
            {
                "AllowedFileTypes": "pdf, doc, jpeg, jpg, xls, tif, tiff, ppt, png, jpeg, docx, sos, txt, xlsx, xml",
                "AttachmentTypeName": "TegningEksisterendeSnitt",
                "MaxAttachmentCount": 99,
                "MaxFileSize": 200,
                "MinAttachmentCount": 0
            },
            {
                "AllowedFileTypes": "pdf, doc, jpeg, jpg, xls, tif, tiff, ppt, png, jpeg, docx, sos, txt, xlsx, xml",
                "AttachmentTypeName": "Dispensasjonssoeknad",
                "MaxAttachmentCount": 99,
                "MaxFileSize": 30,
                "MinAttachmentCount": 0
            },
            {
                "AllowedFileTypes": "pdf, doc, jpeg, jpg, xls, tif, tiff, ppt, png, jpeg, docx, sos, txt, xlsx, xml",
                "AttachmentTypeName": "Nabovarsel",
                "MaxAttachmentCount": 99,
                "MaxFileSize": 30,
                "MinAttachmentCount": 0
            },
            {
                "AllowedFileTypes": "pdf, doc, jpeg, jpg, xls, tif, tiff, ppt, png, jpeg, docx, sos, txt, xlsx, xml",
                "AttachmentTypeName": "RekvisisjonAvOppmaalingsforretning",
                "MaxAttachmentCount": 99,
                "MaxFileSize": 200,
                "MinAttachmentCount": 0
            },
            {
                "AllowedFileTypes": "pdf, doc, jpeg, jpg, xls, tif, tiff, ppt, png, jpeg, docx, sos, txt, xlsx, xml",
                "AttachmentTypeName": "KommentarNabomerknader",
                "MaxAttachmentCount": 99,
                "MaxFileSize": 200,
                "MinAttachmentCount": 0
            },
            {
                "AllowedFileTypes": "pdf, doc, jpeg, jpg, xls, tif, tiff, ppt, png, jpeg, docx, sos, txt, xlsx, xml",
                "AttachmentTypeName": "AvklaringHoyspent",
                "MaxAttachmentCount": 10,
                "MaxFileSize": 200,
                "MinAttachmentCount": 0
            },
            {
                "AllowedFileTypes": "pdf, doc, jpeg, jpg, xls, tif, tiff, ppt, png, jpeg, docx, sos, txt, xlsx, xml",
                "AttachmentTypeName": "AvklaringVA",
                "MaxAttachmentCount": 10,
                "MaxFileSize": 200,
                "MinAttachmentCount": 0
            }
        ],
        "Forms": [
            {
                "DataFormatID": "5786",
                "DataFormatVersion": 42725,
                "FormName": "Gjennomf\u00f8ringsplanV4",
                "FormType": "SubForm",
                "Schema": "https://altinn.no/api/metadata/formtask/4373/2/forms/5786/42725/xsd"
            },
            {
                "DataFormatID": "5797",
                "DataFormatVersion": 42813,
                "FormName": "Vedleggsopplysninger",
                "FormType": "SubForm",
                "Schema": "https://altinn.no/api/metadata/formtask/4373/2/forms/5797/42813/xsd"
            },
            {
                "DataFormatID": "5826",
                "DataFormatVersion": 42895,
                "FormName": "Gjenpart nabovarsel",
                "FormType": "SubForm",
                "Schema": "https://altinn.no/api/metadata/formtask/4373/2/forms/5826/42895/xsd"
            },
            {
                "DataFormatID": "5625",
                "DataFormatVersion": 42144,
                "FormName": "Matrikkelopplysninger",
                "FormType": "SubForm",
                "Schema": "https://altinn.no/api/metadata/formtask/4373/2/forms/5625/42144/xsd"
            }
        ],
        "MainForm": {
            "DataFormatID": "5853",
            "DataFormatVersion": 43137,
            "FormName": "S\u00f8knad om tiltak uten ansvarsrett",
            "FormType": "MainForm",
            "Schema": "https://altinn.no/api/metadata/formtask/4373/2/forms/5853/43137/xsd"
        },
        "ServiceCode": "4373",
        "ServiceEditionCode": 2,
        "ServiceName": "S\u00f8knad om tiltak uten ansvarsrett",
        "Url": "https://altinn.no/api/metadata/formtask/4373/2",
        "ValidFrom": "2019-01-23T11:05:37.877",
        "ValidTo": "2046-02-02T15:41:00"
    }
]